^C:\UNITY\PROJECT\ASSETS\TOOLS\.NATIVESOURCES\NATIVEPLUGINS\NOISE.CPP
/c /Zi /nologo /W3 /WX- /diagnostics:classic /sdl /O2 /Oi /Oy- /GL /D WIN32 /D NDEBUG /D _WINDOWS /D _USRDLL /D NATIVEPLUGINS_EXPORTS /D _WINDLL /D _UNICODE /D UNICODE /Gm- /EHsc /MD /GS /Gy /fp:precise /Zc:wchar_t /Zc:forScope /Zc:inline /Fo"RELEASE\\" /Fd"RELEASE\VC141.PDB" /Gd /TP /analyze- /FC C:\UNITY\PROJECT\ASSETS\TOOLS\.NATIVESOURCES\NATIVEPLUGINS\NOISE.CPP
^C:\UNITY\PROJECT\ASSETS\TOOLS\.NATIVESOURCES\NATIVEPLUGINS\COORD.CPP
/c /Zi /nologo /W3 /WX- /diagnostics:classic /sdl /O2 /Oi /Oy- /GL /D WIN32 /D NDEBUG /D _WINDOWS /D _USRDLL /D NATIVEPLUGINS_EXPORTS /D _WINDLL /D _UNICODE /D UNICODE /Gm- /EHsc /MD /GS /Gy /fp:precise /Zc:wchar_t /Zc:forScope /Zc:inline /Fo"RELEASE\\" /Fd"RELEASE\VC141.PDB" /Gd /TP /analyze- /FC C:\UNITY\PROJECT\ASSETS\TOOLS\.NATIVESOURCES\NATIVEPLUGINS\COORD.CPP
^C:\UNITY\PROJECT\ASSETS\TOOLS\.NATIVESOURCES\NATIVEPLUGINS\EROSION.CPP
/c /Zi /nologo /W3 /WX- /diagnostics:classic /sdl /O2 /Oi /Oy- /GL /D WIN32 /D NDEBUG /D _WINDOWS /D _USRDLL /D NATIVEPLUGINS_EXPORTS /D _WINDLL /D _UNICODE /D UNICODE /Gm- /EHsc /MD /GS /Gy /fp:precise /Zc:wchar_t /Zc:forScope /Zc:inline /Fo"RELEASE\\" /Fd"RELEASE\VC141.PDB" /Gd /TP /analyze- /FC C:\UNITY\PROJECT\ASSETS\TOOLS\.NATIVESOURCES\NATIVEPLUGINS\EROSION.CPP
^C:\UNITY\PROJECT\ASSETS\TOOLS\.NATIVESOURCES\NATIVEPLUGINS\LINE.CPP
/c /Zi /nologo /W3 /WX- /diagnostics:classic /sdl /O2 /Oi /Oy- /GL /D WIN32 /D NDEBUG /D _WINDOWS /D _USRDLL /D NATIVEPLUGINS_EXPORTS /D _WINDLL /D _UNICODE /D UNICODE /Gm- /EHsc /MD /GS /Gy /fp:precise /Zc:wchar_t /Zc:forScope /Zc:inline /Fo"RELEASE\\" /Fd"RELEASE\VC141.PDB" /Gd /TP /analyze- /FC C:\UNITY\PROJECT\ASSETS\TOOLS\.NATIVESOURCES\NATIVEPLUGINS\LINE.CPP
^C:\UNITY\PROJECT\ASSETS\TOOLS\.NATIVESOURCES\NATIVEPLUGINS\VECTOR2.CPP
/c /Zi /nologo /W3 /WX- /diagnostics:classic /sdl /O2 /Oi /Oy- /GL /D WIN32 /D NDEBUG /D _WINDOWS /D _USRDLL /D NATIVEPLUGINS_EXPORTS /D _WINDLL /D _UNICODE /D UNICODE /Gm- /EHsc /MD /GS /Gy /fp:precise /Zc:wchar_t /Zc:forScope /Zc:inline /Fo"RELEASE\\" /Fd"RELEASE\VC141.PDB" /Gd /TP /analyze- /FC C:\UNITY\PROJECT\ASSETS\TOOLS\.NATIVESOURCES\NATIVEPLUGINS\VECTOR2.CPP
^C:\UNITY\PROJECT\ASSETS\TOOLS\.NATIVESOURCES\NATIVEPLUGINS\GENERATORS.CPP
/c /Zi /nologo /W3 /WX- /diagnostics:classic /sdl /O2 /Oi /Oy- /GL /D WIN32 /D NDEBUG /D _WINDOWS /D _USRDLL /D NATIVEPLUGINS_EXPORTS /D _WINDLL /D _UNICODE /D UNICODE /Gm- /EHsc /MD /GS /Gy /fp:precise /Zc:wchar_t /Zc:forScope /Zc:inline /Fo"RELEASE\\" /Fd"RELEASE\VC141.PDB" /Gd /TP /analyze- /FC C:\UNITY\PROJECT\ASSETS\TOOLS\.NATIVESOURCES\NATIVEPLUGINS\GENERATORS.CPP
^C:\UNITY\PROJECT\ASSETS\TOOLS\.NATIVESOURCES\NATIVEPLUGINS\MATRIXOPS.CPP
/c /Zi /nologo /W3 /WX- /diagnostics:classic /sdl /O2 /Oi /Oy- /GL /D WIN32 /D NDEBUG /D _WINDOWS /D _USRDLL /D NATIVEPLUGINS_EXPORTS /D _WINDLL /D _UNICODE /D UNICODE /Gm- /EHsc /MD /GS /Gy /fp:precise /Zc:wchar_t /Zc:forScope /Zc:inline /Fo"RELEASE\\" /Fd"RELEASE\VC141.PDB" /Gd /TP /analyze- /FC C:\UNITY\PROJECT\ASSETS\TOOLS\.NATIVESOURCES\NATIVEPLUGINS\MATRIXOPS.CPP
^C:\UNITY\PROJECT\ASSETS\TOOLS\.NATIVESOURCES\NATIVEPLUGINS\MATRIX.CPP
/c /Zi /nologo /W3 /WX- /diagnostics:classic /sdl /O2 /Oi /Oy- /GL /D WIN32 /D NDEBUG /D _WINDOWS /D _USRDLL /D NATIVEPLUGINS_EXPORTS /D _WINDLL /D _UNICODE /D UNICODE /Gm- /EHsc /MD /GS /Gy /fp:precise /Zc:wchar_t /Zc:forScope /Zc:inline /Fo"RELEASE\\" /Fd"RELEASE\VC141.PDB" /Gd /TP /analyze- /FC C:\UNITY\PROJECT\ASSETS\TOOLS\.NATIVESOURCES\NATIVEPLUGINS\MATRIX.CPP
^D:\UNITY\PROJECT\ASSETS\TOOLS\.NATIVESOURCES\NATIVEPLUGINS\COORD.CPP
/c /Zi /nologo /W3 /WX- /diagnostics:column /sdl /O2 /Oi /Oy- /GL /D WIN32 /D NDEBUG /D _WINDOWS /D _USRDLL /D NATIVEPLUGINS_EXPORTS /D _WINDLL /D _UNICODE /D UNICODE /Gm- /EHsc /MD /GS /Gy /fp:precise /Zc:wchar_t /Zc:forScope /Zc:inline /Fo"RELEASE\\" /Fd"RELEASE\VC142.PDB" /external:W3 /Gd /TP /analyze- /FC D:\UNITY\PROJECT\ASSETS\TOOLS\.NATIVESOURCES\NATIVEPLUGINS\COORD.CPP
^D:\UNITY\PROJECT\ASSETS\TOOLS\.NATIVESOURCES\NATIVEPLUGINS\EROSION.CPP
/c /Zi /nologo /W3 /WX- /diagnostics:column /sdl /O2 /Oi /Oy- /GL /D WIN32 /D NDEBUG /D _WINDOWS /D _USRDLL /D NATIVEPLUGINS_EXPORTS /D _WINDLL /D _UNICODE /D UNICODE /Gm- /EHsc /MD /GS /Gy /fp:precise /Zc:wchar_t /Zc:forScope /Zc:inline /Fo"RELEASE\\" /Fd"RELEASE\VC142.PDB" /external:W3 /Gd /TP /analyze- /FC D:\UNITY\PROJECT\ASSETS\TOOLS\.NATIVESOURCES\NATIVEPLUGINS\EROSION.CPP
^D:\UNITY\PROJECT\ASSETS\TOOLS\.NATIVESOURCES\NATIVEPLUGINS\GENERATORS.CPP
/c /Zi /nologo /W3 /WX- /diagnostics:column /sdl /O2 /Oi /Oy- /GL /D WIN32 /D NDEBUG /D _WINDOWS /D _USRDLL /D NATIVEPLUGINS_EXPORTS /D _WINDLL /D _UNICODE /D UNICODE /Gm- /EHsc /MD /GS /Gy /fp:precise /Zc:wchar_t /Zc:forScope /Zc:inline /Fo"RELEASE\\" /Fd"RELEASE\VC142.PDB" /external:W3 /Gd /TP /analyze- /FC D:\UNITY\PROJECT\ASSETS\TOOLS\.NATIVESOURCES\NATIVEPLUGINS\GENERATORS.CPP
^D:\UNITY\PROJECT\ASSETS\TOOLS\.NATIVESOURCES\NATIVEPLUGINS\LINE.CPP
/c /Zi /nologo /W3 /WX- /diagnostics:column /sdl /O2 /Oi /Oy- /GL /D WIN32 /D NDEBUG /D _WINDOWS /D _USRDLL /D NATIVEPLUGINS_EXPORTS /D _WINDLL /D _UNICODE /D UNICODE /Gm- /EHsc /MD /GS /Gy /fp:precise /Zc:wchar_t /Zc:forScope /Zc:inline /Fo"RELEASE\\" /Fd"RELEASE\VC142.PDB" /external:W3 /Gd /TP /analyze- /FC D:\UNITY\PROJECT\ASSETS\TOOLS\.NATIVESOURCES\NATIVEPLUGINS\LINE.CPP
^D:\UNITY\PROJECT\ASSETS\TOOLS\.NATIVESOURCES\NATIVEPLUGINS\MATRIX.CPP
/c /Zi /nologo /W3 /WX- /diagnostics:column /sdl /O2 /Oi /Oy- /GL /D WIN32 /D NDEBUG /D _WINDOWS /D _USRDLL /D NATIVEPLUGINS_EXPORTS /D _WINDLL /D _UNICODE /D UNICODE /Gm- /EHsc /MD /GS /Gy /fp:precise /Zc:wchar_t /Zc:forScope /Zc:inline /Fo"RELEASE\\" /Fd"RELEASE\VC142.PDB" /external:W3 /Gd /TP /analyze- /FC D:\UNITY\PROJECT\ASSETS\TOOLS\.NATIVESOURCES\NATIVEPLUGINS\MATRIX.CPP
^D:\UNITY\PROJECT\ASSETS\TOOLS\.NATIVESOURCES\NATIVEPLUGINS\MATRIXOPS.CPP
/c /Zi /nologo /W3 /WX- /diagnostics:column /sdl /O2 /Oi /Oy- /GL /D WIN32 /D NDEBUG /D _WINDOWS /D _USRDLL /D NATIVEPLUGINS_EXPORTS /D _WINDLL /D _UNICODE /D UNICODE /Gm- /EHsc /MD /GS /Gy /fp:precise /Zc:wchar_t /Zc:forScope /Zc:inline /Fo"RELEASE\\" /Fd"RELEASE\VC142.PDB" /external:W3 /Gd /TP /analyze- /FC D:\UNITY\PROJECT\ASSETS\TOOLS\.NATIVESOURCES\NATIVEPLUGINS\MATRIXOPS.CPP
^D:\UNITY\PROJECT\ASSETS\TOOLS\.NATIVESOURCES\NATIVEPLUGINS\NOISE.CPP
/c /Zi /nologo /W3 /WX- /diagnostics:column /sdl /O2 /Oi /Oy- /GL /D WIN32 /D NDEBUG /D _WINDOWS /D _USRDLL /D NATIVEPLUGINS_EXPORTS /D _WINDLL /D _UNICODE /D UNICODE /Gm- /EHsc /MD /GS /Gy /fp:precise /Zc:wchar_t /Zc:forScope /Zc:inline /Fo"RELEASE\\" /Fd"RELEASE\VC142.PDB" /external:W3 /Gd /TP /analyze- /FC D:\UNITY\PROJECT\ASSETS\TOOLS\.NATIVESOURCES\NATIVEPLUGINS\NOISE.CPP
^D:\UNITY\PROJECT\ASSETS\TOOLS\.NATIVESOURCES\NATIVEPLUGINS\VECTOR2.CPP
/c /Zi /nologo /W3 /WX- /diagnostics:column /sdl /O2 /Oi /Oy- /GL /D WIN32 /D NDEBUG /D _WINDOWS /D _USRDLL /D NATIVEPLUGINS_EXPORTS /D _WINDLL /D _UNICODE /D UNICODE /Gm- /EHsc /MD /GS /Gy /fp:precise /Zc:wchar_t /Zc:forScope /Zc:inline /Fo"RELEASE\\" /Fd"RELEASE\VC142.PDB" /external:W3 /Gd /TP /analyze- /FC D:\UNITY\PROJECT\ASSETS\TOOLS\.NATIVESOURCES\NATIVEPLUGINS\VECTOR2.CPP
