%YAML 1.1
%TAG !u! tag:unity3d.com,2011:
--- !u!114 &11400000
MonoBehaviour:
  m_ObjectHideFlags: 0
  m_CorrespondingSourceObject: {fileID: 0}
  m_PrefabInstance: {fileID: 0}
  m_PrefabAsset: {fileID: 0}
  m_GameObject: {fileID: 0}
  m_Enabled: 1
  m_EditorHideFlags: 0
  m_Script: {fileID: 11500000, guid: 525ea610e05109241bd0dfc7332dbbbf, type: 3}
  m_Name: CopyInterpolated_upscale_offsetSize4
  m_EditorClassIdentifier: 
  className: Den.Tools.Matrices.MatrixOps
  fnName: CopyInterpolated_test
  obj:
    vec: {x: 0, y: 0, z: 0, w: 0}
    rect:
      offset:
        x: 0
        z: 0
      size:
        x: 0
        z: 0
    matrix:
      rect:
        offset:
          x: 0
          z: 0
        size:
          x: 0
          z: 0
      count: 0
      arr: []
      worldPos: {x: 0, y: 0, z: 0}
      worldSize: {x: 0, y: 0, z: 0}
    stripe:
      length: 0
      arr: []
      offset: 0
      size: 0
    name: 
    argType: 0
  arguments:
  - vec: {x: 0, y: 0, z: 0, w: 0}
    rect:
      offset:
        x: 0
        z: 0
      size:
        x: 0
        z: 0
    matrix:
      rect:
        offset:
          x: 0
          z: 0
        size:
          x: 11
          z: 11
      count: 121
      arr:
      - 0.008197693
      - 0
      - 0
      - 0
      - 0
      - 0
      - 0.021981692
      - 0
      - 0
      - 0
      - 0
      - 0.042923674
      - 0.0285397
      - 0
      - 0
      - 0
      - 0.07652773
      - 0.11509757
      - 0.07652773
      - 0
      - 0
      - 0
      - 0.103625044
      - 0.042923674
      - 0.008197693
      - 0
      - 0.021981692
      - 0.11509757
      - 0.2082135
      - 0.11509757
      - 0.021981692
      - 0
      - 0
      - 0.11547457
      - 0.076778375
      - 0
      - 0
      - 0
      - 0.07652773
      - 0.11509757
      - 0.07652773
      - 0
      - 0
      - 0
      - 0.13944346
      - 0.07255089
      - 0.013855988
      - 0
      - 0.012340161
      - 0
      - 0.021981692
      - 0
      - 0
      - 0
      - 0
      - 0.07255089
      - 0.04823866
      - 0
      - 0.042961415
      - 0.064613916
      - 0.042961415
      - 0
      - 0
      - 0
      - 0
      - 0
      - 0.02137568
      - 0
      - 0.012340161
      - 0.064613916
      - 0.11688767
      - 0.064613916
      - 0.012340161
      - 0
      - 0.020993197
      - 0
      - 0
      - 0.039373662
      - 0.026179314
      - 0
      - 0.042961415
      - 0.064613916
      - 0.042961415
      - 0
      - 0.07308637
      - 0.10992178
      - 0.07308637
      - 0
      - 0.060994197
      - 0.039373662
      - 0.0075197
      - 0
      - 0.012340161
      - 0
      - 0.020993197
      - 0.10992178
      - 0.1988504
      - 0.10992178
      - 0.020993197
      - 0.039373662
      - 0.026179314
      - 0
      - 0
      - 0
      - 0
      - 0
      - 0.07308637
      - 0.10992178
      - 0.07308637
      - 0
      - 0.0075197
      - 0
      - 0
      - 0
      - 0
      - 0
      - 0
      - 0
      - 0.020993197
      - 0
      - 0
      worldPos: {x: 10, y: 0, z: 0}
      worldSize: {x: 10, y: 1, z: 10}
    stripe:
      length: 0
      arr: []
      offset: 0
      size: 0
    name: Src2
    argType: 13
  - vec: {x: 0, y: 0, z: 0, w: 0}
    rect:
      offset:
        x: 0
        z: 0
      size:
        x: 0
        z: 0
    matrix:
      rect:
        offset:
          x: 0
          z: 0
        size:
          x: 31
          z: 31
      count: 961
      arr:
      - 0.05
      - 0.05
      - 0.05
      - 0.05
      - 0.05
      - 0.05
      - 0.05
      - 0.05
      - 0.05
      - 0.05
      - 0.05
      - 0.05
      - 0.05
      - 0.05
      - 0.05
      - 0.05
      - 0.05
      - 0.05
      - 0.05
      - 0.05
      - 0.05
      - 0.05
      - 0.05
      - 0.05
      - 0.05
      - 0.05
      - 0.05
      - 0.05
      - 0.05
      - 0.05
      - 0.05
      - 0.05
      - 0.05
      - 0.05
      - 0.05
      - 0.05
      - 0.05
      - 0.05
      - 0.05
      - 0.05
      - 0.05
      - 0.05
      - 0.05
      - 0.05
      - 0.05
      - 0.05
      - 0.05
      - 0.05
      - 0.05
      - 0.05
      - 0.05
      - 0.05
      - 0.05
      - 0.05
      - 0.05
      - 0.05
      - 0.05
      - 0.05
      - 0.05
      - 0.05
      - 0.05
      - 0.05
      - 0.05
      - 0.05
      - 0.05
      - 0.05
      - 0.05
      - 0.05
      - 0.05
      - 0.05
      - 0.05
      - 0.05
      - 0.05
      - 0.05
      - 0.05
      - 0.05
      - 0.05
      - 0.05
      - 0.05
      - 0.05
      - 0.05
      - 0.05
      - 0.05
      - 0.05
      - 0.05
      - 0.05
      - 0.05
      - 0.05
      - 0.05
      - 0.05
      - 0.05
      - 0.05
      - 0.05
      - 0.05
      - 0.05
      - 0.05
      - 0.05
      - 0.05
      - 0.0050590388
      - 0.0005808203
      - -0.0014659022
      - -0.0005464341
      - 0.00006638008
      - 0.00003495871
      - 0.000045836307
      - 0.00020797044
      - -0.00081775116
      - -0.0038177648
      - 0.000353899
      - 0.01423483
      - 0.01633565
      - 0.0029115966
      - -0.0039344504
      - -0.0014670538
      - 0.0001772106
      - 0.000090135065
      - 0.0000011704798
      - 0.0000005760922
      - 0
      - 0.05
      - 0.05
      - 0.05
      - 0.05
      - 0.05
      - 0.05
      - 0.05
      - 0.05
      - 0.05
      - 0.05
      - 0.021027977
      - 0.016977819
      - 0.011179865
      - 0.002938167
      - -0.0012990104
      - -0.00048229826
      - -0.00077895046
      - -0.0037561953
      - 0.004096002
      - 0.025348872
      - 0.04445404
      - 0.060968406
      - 0.06301799
      - 0.04815537
      - 0.029723514
      - 0.0077531575
      - -0.0035371145
      - -0.0015407634
      - 0.00008037509
      - 0.00003955938
      - 0
      - 0.05
      - 0.05
      - 0.05
      - 0.05
      - 0.05
      - 0.05
      - 0.05
      - 0.05
      - 0.05
      - 0.05
      - 0.038607106
      - 0.03273746
      - 0.022572082
      - 0.0065908134
      - -0.0019014975
      - -0.000885224
      - -0.0012450556
      - -0.0057768743
      - 0.010308441
      - 0.052179363
      - 0.08518954
      - 0.1068573
      - 0.109291874
      - 0.09041855
      - 0.060443632
      - 0.017632412
      - -0.005116161
      - -0.0024535232
      - 0.000025930687
      - 0.000012762685
      - 0
      - 0.05
      - 0.05
      - 0.05
      - 0.05
      - 0.05
      - 0.05
      - 0.05
      - 0.05
      - 0.05
      - 0.05
      - 0.064417765
      - 0.045618013
      - 0.028011141
      - 0.0112565905
      - 0.0013739929
      - -0.00071804936
      - -0.000012628702
      - 0.0015211835
      - 0.02447619
      - 0.07338484
      - 0.11830191
      - 0.15898232
      - 0.16408522
      - 0.12734033
      - 0.0833996
      - 0.033085976
      - 0.003689637
      - 0.000039128106
      - -0.00071353914
      - -0.00035119298
      - 0
      - 0.05
      - 0.05
      - 0.05
      - 0.05
      - 0.05
      - 0.05
      - 0.05
      - 0.05
      - 0.05
      - 0.05
      - 0.08964218
      - 0.05809464
      - 0.033143163
      - 0.015602772
      - 0.004408759
      - -0.0005683887
      - 0.0013158093
      - 0.009145937
      - 0.035963245
      - 0.08484381
      - 0.13657463
      - 0.19371147
      - 0.20123462
      - 0.14874834
      - 0.09525671
      - 0.044600658
      - 0.012608642
      - 0.0027161671
      - -0.0014013387
      - -0.00068971736
      - 0
      - 0.05
      - 0.05
      - 0.05
      - 0.05
      - 0.05
      - 0.05
      - 0.05
      - 0.05
      - 0.05
      - 0.05
      - 0.10124612
      - 0.07526097
      - 0.047712952
      - 0.017148621
      - -0.000114243034
      - -0.0015799783
      - 0.00021189464
      - 0.002655841
      - 0.026469553
      - 0.07602977
      - 0.122868404
      - 0.16726294
      - 0.17288928
      - 0.13257948
      - 0.08637903
      - 0.03576744
      - 0.0056685936
      - 0.00062845147
      - -0.00086802023
      - -0.00042722624
      - 0
      - 0.05
      - 0.05
      - 0.05
      - 0.05
      - 0.05
      - 0.05
      - 0.05
      - 0.05
      - 0.05
      - 0.05
      - 0.1076736
      - 0.09047654
      - 0.062054165
      - 0.018363716
      - -0.0049357857
      - -0.0024372195
      - -0.0012099358
      - -0.005563208
      - 0.011595618
      - 0.055622596
      - 0.09059934
      - 0.11403445
      - 0.116686404
      - 0.09620531
      - 0.0643639
      - 0.01948781
      - -0.0045819194
      - -0.0023360902
      - -0.000032503387
      - -0.000015997668
      - 0
      - 0.05
      - 0.05
      - 0.05
      - 0.05
      - 0.05
      - 0.05
      - 0.05
      - 0.05
      - 0.05
      - 0.05
      - 0.12072533
      - 0.09568728
      - 0.06437555
      - 0.024076445
      - 0.00045174765
      - -0.0026804744
      - -0.0030621293
      - -0.0027459494
      - 0.00628618
      - 0.025590485
      - 0.044539895
      - 0.06340396
      - 0.0664871
      - 0.050896466
      - 0.03141015
      - 0.008084226
      - -0.0038724435
      - -0.0016709985
      - 0.00009435334
      - 0.00004643926
      - 0
      - 0.05
      - 0.05
      - 0.05
      - 0.05
      - 0.05
      - 0.05
      - 0.05
      - 0.05
      - 0.05
      - 0.05
      - 0.12662071
      - 0.09266221
      - 0.06004566
      - 0.028061872
      - 0.0075915675
      - 0.0002301151
      - 0.00024282985
      - 0.008310052
      - 0.009918251
      - 0.0021647895
      - 0.0041718315
      - 0.019678684
      - 0.022474026
      - 0.008405451
      - -0.000032245338
      - -0.00029594087
      - -0.0001228973
      - -0.000057797635
      - 0.0000010804442
      - 0.000000531778
      - 0
      - 0.05
      - 0.05
      - 0.05
      - 0.05
      - 0.05
      - 0.05
      - 0.05
      - 0.05
      - 0.05
      - 0.05
      - 0.1040145
      - 0.079491585
      - 0.05218278
      - 0.020031374
      - 0.0055538877
      - 0.012533995
      - 0.021459114
      - 0.03152812
      - 0.03167928
      - 0.019384239
      - 0.010612863
      - 0.007259413
      - 0.00301333
      - -0.0030183094
      - -0.005211249
      - -0.002625829
      - -0.00076535245
      - -0.00018554529
      - 0.0000767607
      - 0.000037780424
      - 0
      - 0.05
      - 0.05
      - 0.05
      - 0.05
      - 0.05
      - 0.05
      - 0.05
      - 0.05
      - 0.05
      - 0.05
      - 0.070326634
      - 0.059050653
      - 0.03984635
      - 0.00903384
      - 0.0028951704
      - 0.027796132
      - 0.047769755
      - 0.059950057
      - 0.06130672
      - 0.050646026
      - 0.033921793
      - 0.010219386
      - -0.0024873826
      - -0.00127253
      - -0.00013089746
      - -0.00033861824
      - -0.00034913328
      - -0.00011016922
      - 0.00002476461
      - 0.000012188758
      - 0
      - 0.05
      - 0.05
      - 0.05
      - 0.05
      - 0.05
      - 0.05
      - 0.05
      - 0.05
      - 0.05
      - 0.05
      - 0.03984324
      - 0.029396653
      - 0.018512469
      - 0.0055583837
      - 0.011395295
      - 0.040190864
      - 0.06647225
      - 0.08927936
      - 0.092138395
      - 0.07159521
      - 0.046638366
      - 0.017678615
      - -0.00004461277
      - -0.004131035
      - -0.0033137617
      - 0.0025091595
      - 0.0035489998
      - -0.0020092316
      - -0.004154456
      - -0.0016533072
      - 0.00090192695
      - 0.05
      - 0.05
      - 0.05
      - 0.05
      - 0.05
      - 0.05
      - 0.05
      - 0.05
      - 0.05
      - 0.05
      - 0.017291518
      - 0.0045991256
      - 0.00013912725
      - 0.0047396496
      - 0.020142596
      - 0.04760871
      - 0.07667146
      - 0.10874681
      - 0.112970136
      - 0.08350622
      - 0.053494353
      - 0.02512338
      - 0.006534403
      - -0.0009667186
      - 0.0011800908
      - 0.014723225
      - 0.017083155
      - 0.0044110874
      - -0.002458786
      - -0.0010838859
      - 0.00029098056
      - 0.05
      - 0.05
      - 0.05
      - 0.05
      - 0.05
      - 0.05
      - 0.05
      - 0.05
      - 0.05
      - 0.05
      - 0.021142943
      - 0.011691983
      - 0.0057862843
      - 0.003013489
      - 0.014329952
      - 0.042426597
      - 0.068978496
      - 0.093899764
      - 0.097076446
      - 0.074516185
      - 0.04779772
      - 0.016838213
      - 0.006343496
      - 0.020899305
      - 0.0368103
      - 0.05321248
      - 0.055519022
      - 0.040827863
      - 0.024739094
      - 0.00856828
      - -0.008108917
      - 0.05
      - 0.05
      - 0.05
      - 0.05
      - 0.05
      - 0.05
      - 0.05
      - 0.05
      - 0.05
      - 0.05
      - 0.036081117
      - 0.030158387
      - 0.019937064
      - 0.0029815256
      - 0.0048795193
      - 0.030425051
      - 0.05086169
      - 0.06401744
      - 0.06551206
      - 0.05403657
      - 0.034935478
      - 0.005422665
      - 0.007264135
      - 0.04847962
      - 0.08128143
      - 0.10198844
      - 0.104323745
      - 0.086293444
      - 0.058822498
      - 0.022083737
      - -0.015757982
      - 0.05
      - 0.05
      - 0.05
      - 0.05
      - 0.05
      - 0.05
      - 0.05
      - 0.05
      - 0.05
      - 0.05
      - 0.048398275
      - 0.040785078
      - 0.028427979
      - 0.009206448
      - 0.0036200108
      - 0.015042487
      - 0.02610876
      - 0.035918117
      - 0.037066247
      - 0.027746461
      - 0.01787524
      - 0.006116231
      - 0.021201672
      - 0.06914684
      - 0.11303508
      - 0.1518592
      - 0.15670653
      - 0.12161401
      - 0.080855235
      - 0.037138242
      - -0.007933428
      - 0.05
      - 0.05
      - 0.05
      - 0.05
      - 0.05
      - 0.05
      - 0.05
      - 0.05
      - 0.05
      - 0.05
      - 0.05677183
      - 0.04657225
      - 0.03322273
      - 0.015501834
      - 0.004243944
      - 0.00068882416
      - 0.00266688
      - 0.011136345
      - 0.01225353
      - 0.0031677189
      - 0.001737642
      - 0.008814167
      - 0.0342771
      - 0.08099615
      - 0.13043374
      - 0.1850009
      - 0.19218533
      - 0.14205934
      - 0.09206133
      - 0.047593877
      - 0.0017038226
      - 0.05
      - 0.05
      - 0.05
      - 0.05
      - 0.05
      - 0.05
      - 0.05
      - 0.05
      - 0.05
      - 0.05
      - 0.050989334
      - 0.04234694
      - 0.029999582
      - 0.01264636
      - 0.0014026229
      - -0.0023758523
      - -0.0023275104
      - 0.001906648
      - 0.0024848229
      - -0.0022613266
      - -0.0022614724
      - 0.0022763638
      - 0.02607779
      - 0.07289659
      - 0.11730017
      - 0.1597202
      - 0.16511467
      - 0.12661757
      - 0.083680026
      - 0.039604176
      - -0.005847107
      - 0.05
      - 0.05
      - 0.05
      - 0.05
      - 0.05
      - 0.05
      - 0.05
      - 0.05
      - 0.05
      - 0.05
      - 0.03797438
      - 0.031992283
      - 0.022033883
      - 0.0066764685
      - -0.0015767319
      - -0.0008433702
      - -0.0000011207768
      - 0.00017943721
      - 0.00020356907
      - 0.0000066555317
      - -0.0011682281
      - -0.0051548453
      - 0.011274463
      - 0.053185325
      - 0.086511366
      - 0.10889966
      - 0.11143917
      - 0.091879085
      - 0.06265857
      - 0.024073578
      - -0.015671736
      - 0.05
      - 0.05
      - 0.05
      - 0.05
      - 0.05
      - 0.05
      - 0.05
      - 0.05
      - 0.05
      - 0.05
      - 0.023409083
      - 0.018503321
      - 0.011976242
      - 0.0031331251
      - -0.0014072007
      - -0.00055791636
      - -0.000106764455
      - -0.00065904553
      - -0.00073227106
      - -0.00013611311
      - -0.00085393625
      - -0.0042016273
      - 0.004650575
      - 0.028687607
      - 0.049225133
      - 0.06537575
      - 0.06732124
      - 0.052931163
      - 0.034272816
      - 0.012093718
      - -0.0107620815
      - 0.05
      - 0.05
      - 0.05
      - 0.05
      - 0.05
      - 0.05
      - 0.05
      - 0.05
      - 0.05
      - 0.05
      - 0.007145897
      - 0.0028894157
      - 0.00039983567
      - 0.000024079478
      - -0.000072772455
      - -0.00003427539
      - -0.0000012225645
      - -0.000007546759
      - -0.000008385267
      - -0.0000015586372
      - -0.000049322683
      - -0.0002297696
      - 0.000088307745
      - 0.000597665
      - 0.0067698658
      - 0.020658804
      - 0.022697087
      - 0.009422299
      - 0.0011653808
      - 0.00028720565
      - -0.0006570871
      - 0.05
      - 0.05
      - 0.05
      - 0.05
      - 0.05
      - 0.05
      - 0.05
      - 0.05
      - 0.05
      - 0.05
      - 0.05
      - 0.05
      - 0.05
      - 0.05
      - 0.05
      - 0.05
      - 0.05
      - 0.05
      - 0.05
      - 0.05
      - 0.05
      - 0.05
      - 0.05
      - 0.05
      - 0.05
      - 0.05
      - 0.05
      - 0.05
      - 0.05
      - 0.05
      - 0.05
      - 0.05
      - 0.05
      - 0.05
      - 0.05
      - 0.05
      - 0.05
      - 0.05
      - 0.05
      - 0.05
      - 0.05
      - 0.05
      - 0.05
      - 0.05
      - 0.05
      - 0.05
      - 0.05
      - 0.05
      - 0.05
      - 0.05
      - 0.05
      - 0.05
      - 0.05
      - 0.05
      - 0.05
      - 0.05
      - 0.05
      - 0.05
      - 0.05
      - 0.05
      - 0.05
      - 0.05
      - 0.05
      - 0.05
      - 0.05
      - 0.05
      - 0.05
      - 0.05
      - 0.05
      - 0.05
      - 0.05
      - 0.05
      - 0.05
      - 0.05
      - 0.05
      - 0.05
      - 0.05
      - 0.05
      - 0.05
      - 0.05
      - 0.05
      - 0.05
      - 0.05
      - 0.05
      - 0.05
      - 0.05
      - 0.05
      - 0.05
      - 0.05
      - 0.05
      - 0.05
      - 0.05
      - 0.05
      - 0.05
      - 0.05
      - 0.05
      - 0.05
      - 0.05
      - 0.05
      - 0.05
      - 0.05
      - 0.05
      - 0.05
      - 0.05
      - 0.05
      - 0.05
      - 0.05
      - 0.05
      - 0.05
      - 0.05
      - 0.05
      - 0.05
      - 0.05
      - 0.05
      - 0.05
      - 0.05
      - 0.05
      - 0.05
      - 0.05
      - 0.05
      - 0.05
      - 0.05
      - 0.05
      - 0.05
      - 0.05
      - 0.05
      - 0.05
      - 0.05
      - 0.05
      - 0.05
      - 0.05
      - 0.05
      - 0.05
      - 0.05
      - 0.05
      - 0.05
      - 0.05
      - 0.05
      - 0.05
      - 0.05
      - 0.05
      - 0.05
      - 0.05
      - 0.05
      - 0.05
      - 0.05
      - 0.05
      - 0.05
      - 0.05
      - 0.05
      - 0.05
      - 0.05
      - 0.05
      - 0.05
      - 0.05
      - 0.05
      - 0.05
      - 0.05
      - 0.05
      - 0.05
      - 0.05
      - 0.05
      - 0.05
      - 0.05
      - 0.05
      - 0.05
      - 0.05
      - 0.05
      - 0.05
      - 0.05
      - 0.05
      - 0.05
      - 0.05
      - 0.05
      - 0.05
      - 0.05
      - 0.05
      - 0.05
      - 0.05
      - 0.05
      - 0.05
      - 0.05
      - 0.05
      - 0.05
      - 0.05
      - 0.05
      - 0.05
      - 0.05
      - 0.05
      - 0.05
      - 0.05
      - 0.05
      - 0.05
      - 0.05
      - 0.05
      - 0.05
      - 0.05
      - 0.05
      - 0.05
      - 0.05
      - 0.05
      - 0.05
      - 0.05
      - 0.05
      - 0.05
      - 0.05
      - 0.05
      - 0.05
      - 0.05
      - 0.05
      - 0.05
      - 0.05
      - 0.05
      - 0.05
      - 0.05
      - 0.05
      - 0.05
      - 0.05
      - 0.05
      - 0.05
      - 0.05
      - 0.05
      worldPos: {x: 7.7, y: 0, z: -1.54}
      worldSize: {x: 15, y: 1, z: 15}
    stripe:
      length: 0
      arr: []
      offset: 0
      size: 0
    name: Dst
    argType: 13
  result:
    vec: {x: 0, y: 0, z: 0, w: 0}
    rect:
      offset:
        x: 0
        z: 0
      size:
        x: 0
        z: 0
    matrix:
      rect:
        offset:
          x: 0
          z: 0
        size:
          x: 0
          z: 0
      count: 0
      arr: []
      worldPos: {x: 0, y: 0, z: 0}
      worldSize: {x: 0, y: 0, z: 0}
    stripe:
      length: 0
      arr: []
      offset: 0
      size: 0
    name: 
    argType: 0
  benchmarkIterations: 1000
  benchmarkReferences: 0
  benchmarkCurrent: 0
  regressionObj:
    vec: {x: 0, y: 0, z: 0, w: 0}
    rect:
      offset:
        x: 0
        z: 0
      size:
        x: 0
        z: 0
    matrix:
      rect:
        offset:
          x: 0
          z: 0
        size:
          x: 0
          z: 0
      count: 0
      arr: []
      worldPos: {x: 0, y: 0, z: 0}
      worldSize: {x: 0, y: 0, z: 0}
    stripe:
      length: 0
      arr: []
      offset: 0
      size: 0
    name: 
    argType: 0
  regressionArguments:
  - vec: {x: 0, y: 0, z: 0, w: 0}
    rect:
      offset:
        x: 0
        z: 0
      size:
        x: 0
        z: 0
    matrix:
      rect:
        offset:
          x: 0
          z: 0
        size:
          x: 11
          z: 11
      count: 121
      arr:
      - 0.008197693
      - 0
      - 0
      - 0
      - 0
      - 0
      - 0.021981692
      - 0
      - 0
      - 0
      - 0
      - 0.042923674
      - 0.0285397
      - 0
      - 0
      - 0
      - 0.07652773
      - 0.11509757
      - 0.07652773
      - 0
      - 0
      - 0
      - 0.103625044
      - 0.042923674
      - 0.008197693
      - 0
      - 0.021981692
      - 0.11509757
      - 0.2082135
      - 0.11509757
      - 0.021981692
      - 0
      - 0
      - 0.11547457
      - 0.076778375
      - 0
      - 0
      - 0
      - 0.07652773
      - 0.11509757
      - 0.07652773
      - 0
      - 0
      - 0
      - 0.13944346
      - 0.07255089
      - 0.013855988
      - 0
      - 0.012340161
      - 0
      - 0.021981692
      - 0
      - 0
      - 0
      - 0
      - 0.07255089
      - 0.04823866
      - 0
      - 0.042961415
      - 0.064613916
      - 0.042961415
      - 0
      - 0
      - 0
      - 0
      - 0
      - 0.02137568
      - 0
      - 0.012340161
      - 0.064613916
      - 0.11688767
      - 0.064613916
      - 0.012340161
      - 0
      - 0.020993197
      - 0
      - 0
      - 0.039373662
      - 0.026179314
      - 0
      - 0.042961415
      - 0.064613916
      - 0.042961415
      - 0
      - 0.07308637
      - 0.10992178
      - 0.07308637
      - 0
      - 0.060994197
      - 0.039373662
      - 0.0075197
      - 0
      - 0.012340161
      - 0
      - 0.020993197
      - 0.10992178
      - 0.1988504
      - 0.10992178
      - 0.020993197
      - 0.039373662
      - 0.026179314
      - 0
      - 0
      - 0
      - 0
      - 0
      - 0.07308637
      - 0.10992178
      - 0.07308637
      - 0
      - 0.0075197
      - 0
      - 0
      - 0
      - 0
      - 0
      - 0
      - 0
      - 0.020993197
      - 0
      - 0
      worldPos: {x: 10, y: 0, z: 0}
      worldSize: {x: 10, y: 1, z: 10}
    stripe:
      length: 0
      arr: []
      offset: 0
      size: 0
    name: Src2
    argType: 13
  - vec: {x: 0, y: 0, z: 0, w: 0}
    rect:
      offset:
        x: 0
        z: 0
      size:
        x: 0
        z: 0
    matrix:
      rect:
        offset:
          x: 0
          z: 0
        size:
          x: 31
          z: 31
      count: 961
      arr:
      - 0.05
      - 0.05
      - 0.05
      - 0.05
      - 0.05
      - 0.05
      - 0.05
      - 0.05
      - 0.05
      - 0.05
      - 0.05
      - 0.05
      - 0.05
      - 0.05
      - 0.05
      - 0.05
      - 0.05
      - 0.05
      - 0.05
      - 0.05
      - 0.05
      - 0.05
      - 0.05
      - 0.05
      - 0.05
      - 0.05
      - 0.05
      - 0.05
      - 0.05
      - 0.05
      - 0.05
      - 0.05
      - 0.05
      - 0.05
      - 0.05
      - 0.05
      - 0.05
      - 0.05
      - 0.05
      - 0.05
      - 0.05
      - 0.05
      - 0.05
      - 0.05
      - 0.05
      - 0.05
      - 0.05
      - 0.05
      - 0.05
      - 0.05
      - 0.05
      - 0.05
      - 0.05
      - 0.05
      - 0.05
      - 0.05
      - 0.05
      - 0.05
      - 0.05
      - 0.05
      - 0.05
      - 0.05
      - 0.05
      - 0.05
      - 0.05
      - 0.05
      - 0.05
      - 0.05
      - 0.05
      - 0.05
      - 0.05
      - 0.05
      - 0.05
      - 0.05
      - 0.05
      - 0.05
      - 0.05
      - 0.05
      - 0.05
      - 0.05
      - 0.05
      - 0.05
      - 0.05
      - 0.05
      - 0.05
      - 0.05
      - 0.05
      - 0.05
      - 0.05
      - 0.05
      - 0.05
      - 0.05
      - 0.05
      - 0.05
      - 0.05
      - 0.05
      - 0.05
      - 0.05
      - 0.0050590388
      - 0.0005808203
      - -0.0014659022
      - -0.0005464341
      - 0.00006638008
      - 0.00003495871
      - 0.000045836307
      - 0.00020797044
      - -0.00081775116
      - -0.0038177648
      - 0.000353899
      - 0.01423483
      - 0.01633565
      - 0.0029115966
      - -0.0039344504
      - -0.0014670538
      - 0.0001772106
      - 0.000090135065
      - 0.0000011704798
      - 0.0000005760922
      - 0
      - 0.05
      - 0.05
      - 0.05
      - 0.05
      - 0.05
      - 0.05
      - 0.05
      - 0.05
      - 0.05
      - 0.05
      - 0.021027977
      - 0.016977819
      - 0.011179865
      - 0.002938167
      - -0.0012990104
      - -0.00048229826
      - -0.00077895046
      - -0.0037561953
      - 0.004096002
      - 0.025348872
      - 0.04445404
      - 0.060968406
      - 0.06301799
      - 0.04815537
      - 0.029723514
      - 0.0077531575
      - -0.0035371145
      - -0.0015407634
      - 0.00008037509
      - 0.00003955938
      - 0
      - 0.05
      - 0.05
      - 0.05
      - 0.05
      - 0.05
      - 0.05
      - 0.05
      - 0.05
      - 0.05
      - 0.05
      - 0.038607106
      - 0.03273746
      - 0.022572082
      - 0.0065908134
      - -0.0019014975
      - -0.000885224
      - -0.0012450556
      - -0.0057768743
      - 0.010308441
      - 0.052179363
      - 0.08518954
      - 0.1068573
      - 0.109291874
      - 0.09041855
      - 0.060443632
      - 0.017632412
      - -0.005116161
      - -0.0024535232
      - 0.000025930687
      - 0.000012762685
      - 0
      - 0.05
      - 0.05
      - 0.05
      - 0.05
      - 0.05
      - 0.05
      - 0.05
      - 0.05
      - 0.05
      - 0.05
      - 0.064417765
      - 0.045618013
      - 0.028011141
      - 0.0112565905
      - 0.0013739929
      - -0.00071804936
      - -0.000012628702
      - 0.0015211835
      - 0.02447619
      - 0.07338484
      - 0.11830191
      - 0.15898232
      - 0.16408522
      - 0.12734033
      - 0.0833996
      - 0.033085976
      - 0.003689637
      - 0.000039128106
      - -0.00071353914
      - -0.00035119298
      - 0
      - 0.05
      - 0.05
      - 0.05
      - 0.05
      - 0.05
      - 0.05
      - 0.05
      - 0.05
      - 0.05
      - 0.05
      - 0.08964218
      - 0.05809464
      - 0.033143163
      - 0.015602772
      - 0.004408759
      - -0.0005683887
      - 0.0013158093
      - 0.009145937
      - 0.035963245
      - 0.08484381
      - 0.13657463
      - 0.19371147
      - 0.20123462
      - 0.14874834
      - 0.09525671
      - 0.044600658
      - 0.012608642
      - 0.0027161671
      - -0.0014013387
      - -0.00068971736
      - 0
      - 0.05
      - 0.05
      - 0.05
      - 0.05
      - 0.05
      - 0.05
      - 0.05
      - 0.05
      - 0.05
      - 0.05
      - 0.10124612
      - 0.07526097
      - 0.047712952
      - 0.017148621
      - -0.000114243034
      - -0.0015799783
      - 0.00021189464
      - 0.002655841
      - 0.026469553
      - 0.07602977
      - 0.122868404
      - 0.16726294
      - 0.17288928
      - 0.13257948
      - 0.08637903
      - 0.03576744
      - 0.0056685936
      - 0.00062845147
      - -0.00086802023
      - -0.00042722624
      - 0
      - 0.05
      - 0.05
      - 0.05
      - 0.05
      - 0.05
      - 0.05
      - 0.05
      - 0.05
      - 0.05
      - 0.05
      - 0.1076736
      - 0.09047654
      - 0.062054165
      - 0.018363716
      - -0.0049357857
      - -0.0024372195
      - -0.0012099358
      - -0.005563208
      - 0.011595618
      - 0.055622596
      - 0.09059934
      - 0.11403445
      - 0.116686404
      - 0.09620531
      - 0.0643639
      - 0.01948781
      - -0.0045819194
      - -0.0023360902
      - -0.000032503387
      - -0.000015997668
      - 0
      - 0.05
      - 0.05
      - 0.05
      - 0.05
      - 0.05
      - 0.05
      - 0.05
      - 0.05
      - 0.05
      - 0.05
      - 0.12072533
      - 0.09568728
      - 0.06437555
      - 0.024076445
      - 0.00045174765
      - -0.0026804744
      - -0.0030621293
      - -0.0027459494
      - 0.00628618
      - 0.025590485
      - 0.044539895
      - 0.06340396
      - 0.0664871
      - 0.050896466
      - 0.03141015
      - 0.008084226
      - -0.0038724435
      - -0.0016709985
      - 0.00009435334
      - 0.00004643926
      - 0
      - 0.05
      - 0.05
      - 0.05
      - 0.05
      - 0.05
      - 0.05
      - 0.05
      - 0.05
      - 0.05
      - 0.05
      - 0.12662071
      - 0.09266221
      - 0.06004566
      - 0.028061872
      - 0.0075915675
      - 0.0002301151
      - 0.00024282985
      - 0.008310052
      - 0.009918251
      - 0.0021647895
      - 0.0041718315
      - 0.019678684
      - 0.022474026
      - 0.008405451
      - -0.000032245338
      - -0.00029594087
      - -0.0001228973
      - -0.000057797635
      - 0.0000010804442
      - 0.000000531778
      - 0
      - 0.05
      - 0.05
      - 0.05
      - 0.05
      - 0.05
      - 0.05
      - 0.05
      - 0.05
      - 0.05
      - 0.05
      - 0.1040145
      - 0.079491585
      - 0.05218278
      - 0.020031374
      - 0.0055538877
      - 0.012533995
      - 0.021459114
      - 0.03152812
      - 0.03167928
      - 0.019384239
      - 0.010612863
      - 0.007259413
      - 0.00301333
      - -0.0030183094
      - -0.005211249
      - -0.002625829
      - -0.00076535245
      - -0.00018554529
      - 0.0000767607
      - 0.000037780424
      - 0
      - 0.05
      - 0.05
      - 0.05
      - 0.05
      - 0.05
      - 0.05
      - 0.05
      - 0.05
      - 0.05
      - 0.05
      - 0.070326634
      - 0.059050653
      - 0.03984635
      - 0.00903384
      - 0.0028951704
      - 0.027796132
      - 0.047769755
      - 0.059950057
      - 0.06130672
      - 0.050646026
      - 0.033921793
      - 0.010219386
      - -0.0024873826
      - -0.00127253
      - -0.00013089746
      - -0.00033861824
      - -0.00034913328
      - -0.00011016922
      - 0.00002476461
      - 0.000012188758
      - 0
      - 0.05
      - 0.05
      - 0.05
      - 0.05
      - 0.05
      - 0.05
      - 0.05
      - 0.05
      - 0.05
      - 0.05
      - 0.03984324
      - 0.029396653
      - 0.018512469
      - 0.0055583837
      - 0.011395295
      - 0.040190864
      - 0.06647225
      - 0.08927936
      - 0.092138395
      - 0.07159521
      - 0.046638366
      - 0.017678615
      - -0.00004461277
      - -0.004131035
      - -0.0033137617
      - 0.0025091595
      - 0.0035489998
      - -0.0020092316
      - -0.004154456
      - -0.0016533072
      - 0.00090192695
      - 0.05
      - 0.05
      - 0.05
      - 0.05
      - 0.05
      - 0.05
      - 0.05
      - 0.05
      - 0.05
      - 0.05
      - 0.017291518
      - 0.0045991256
      - 0.00013912725
      - 0.0047396496
      - 0.020142596
      - 0.04760871
      - 0.07667146
      - 0.10874681
      - 0.112970136
      - 0.08350622
      - 0.053494353
      - 0.02512338
      - 0.006534403
      - -0.0009667186
      - 0.0011800908
      - 0.014723225
      - 0.017083155
      - 0.0044110874
      - -0.002458786
      - -0.0010838859
      - 0.00029098056
      - 0.05
      - 0.05
      - 0.05
      - 0.05
      - 0.05
      - 0.05
      - 0.05
      - 0.05
      - 0.05
      - 0.05
      - 0.021142943
      - 0.011691983
      - 0.0057862843
      - 0.003013489
      - 0.014329952
      - 0.042426597
      - 0.068978496
      - 0.093899764
      - 0.097076446
      - 0.074516185
      - 0.04779772
      - 0.016838213
      - 0.006343496
      - 0.020899305
      - 0.0368103
      - 0.05321248
      - 0.055519022
      - 0.040827863
      - 0.024739094
      - 0.00856828
      - -0.008108917
      - 0.05
      - 0.05
      - 0.05
      - 0.05
      - 0.05
      - 0.05
      - 0.05
      - 0.05
      - 0.05
      - 0.05
      - 0.036081117
      - 0.030158387
      - 0.019937064
      - 0.0029815256
      - 0.0048795193
      - 0.030425051
      - 0.05086169
      - 0.06401744
      - 0.06551206
      - 0.05403657
      - 0.034935478
      - 0.005422665
      - 0.007264135
      - 0.04847962
      - 0.08128143
      - 0.10198844
      - 0.104323745
      - 0.086293444
      - 0.058822498
      - 0.022083737
      - -0.015757982
      - 0.05
      - 0.05
      - 0.05
      - 0.05
      - 0.05
      - 0.05
      - 0.05
      - 0.05
      - 0.05
      - 0.05
      - 0.048398275
      - 0.040785078
      - 0.028427979
      - 0.009206448
      - 0.0036200108
      - 0.015042487
      - 0.02610876
      - 0.035918117
      - 0.037066247
      - 0.027746461
      - 0.01787524
      - 0.006116231
      - 0.021201672
      - 0.06914684
      - 0.11303508
      - 0.1518592
      - 0.15670653
      - 0.12161401
      - 0.080855235
      - 0.037138242
      - -0.007933428
      - 0.05
      - 0.05
      - 0.05
      - 0.05
      - 0.05
      - 0.05
      - 0.05
      - 0.05
      - 0.05
      - 0.05
      - 0.05677183
      - 0.04657225
      - 0.03322273
      - 0.015501834
      - 0.004243944
      - 0.00068882416
      - 0.00266688
      - 0.011136345
      - 0.01225353
      - 0.0031677189
      - 0.001737642
      - 0.008814167
      - 0.0342771
      - 0.08099615
      - 0.13043374
      - 0.1850009
      - 0.19218533
      - 0.14205934
      - 0.09206133
      - 0.047593877
      - 0.0017038226
      - 0.05
      - 0.05
      - 0.05
      - 0.05
      - 0.05
      - 0.05
      - 0.05
      - 0.05
      - 0.05
      - 0.05
      - 0.050989334
      - 0.04234694
      - 0.029999582
      - 0.01264636
      - 0.0014026229
      - -0.0023758523
      - -0.0023275104
      - 0.001906648
      - 0.0024848229
      - -0.0022613266
      - -0.0022614724
      - 0.0022763638
      - 0.02607779
      - 0.07289659
      - 0.11730017
      - 0.1597202
      - 0.16511467
      - 0.12661757
      - 0.083680026
      - 0.039604176
      - -0.005847107
      - 0.05
      - 0.05
      - 0.05
      - 0.05
      - 0.05
      - 0.05
      - 0.05
      - 0.05
      - 0.05
      - 0.05
      - 0.03797438
      - 0.031992283
      - 0.022033883
      - 0.0066764685
      - -0.0015767319
      - -0.0008433702
      - -0.0000011207768
      - 0.00017943721
      - 0.00020356907
      - 0.0000066555317
      - -0.0011682281
      - -0.0051548453
      - 0.011274463
      - 0.053185325
      - 0.086511366
      - 0.10889966
      - 0.11143917
      - 0.091879085
      - 0.06265857
      - 0.024073578
      - -0.015671736
      - 0.05
      - 0.05
      - 0.05
      - 0.05
      - 0.05
      - 0.05
      - 0.05
      - 0.05
      - 0.05
      - 0.05
      - 0.023409083
      - 0.018503321
      - 0.011976242
      - 0.0031331251
      - -0.0014072007
      - -0.00055791636
      - -0.000106764455
      - -0.00065904553
      - -0.00073227106
      - -0.00013611311
      - -0.00085393625
      - -0.0042016273
      - 0.004650575
      - 0.028687607
      - 0.049225133
      - 0.06537575
      - 0.06732124
      - 0.052931163
      - 0.034272816
      - 0.012093718
      - -0.0107620815
      - 0.05
      - 0.05
      - 0.05
      - 0.05
      - 0.05
      - 0.05
      - 0.05
      - 0.05
      - 0.05
      - 0.05
      - 0.007145897
      - 0.0028894157
      - 0.00039983567
      - 0.000024079478
      - -0.000072772455
      - -0.00003427539
      - -0.0000012225645
      - -0.000007546759
      - -0.000008385267
      - -0.0000015586372
      - -0.000049322683
      - -0.0002297696
      - 0.000088307745
      - 0.000597665
      - 0.0067698658
      - 0.020658804
      - 0.022697087
      - 0.009422299
      - 0.0011653808
      - 0.00028720565
      - -0.0006570871
      - 0.05
      - 0.05
      - 0.05
      - 0.05
      - 0.05
      - 0.05
      - 0.05
      - 0.05
      - 0.05
      - 0.05
      - 0.05
      - 0.05
      - 0.05
      - 0.05
      - 0.05
      - 0.05
      - 0.05
      - 0.05
      - 0.05
      - 0.05
      - 0.05
      - 0.05
      - 0.05
      - 0.05
      - 0.05
      - 0.05
      - 0.05
      - 0.05
      - 0.05
      - 0.05
      - 0.05
      - 0.05
      - 0.05
      - 0.05
      - 0.05
      - 0.05
      - 0.05
      - 0.05
      - 0.05
      - 0.05
      - 0.05
      - 0.05
      - 0.05
      - 0.05
      - 0.05
      - 0.05
      - 0.05
      - 0.05
      - 0.05
      - 0.05
      - 0.05
      - 0.05
      - 0.05
      - 0.05
      - 0.05
      - 0.05
      - 0.05
      - 0.05
      - 0.05
      - 0.05
      - 0.05
      - 0.05
      - 0.05
      - 0.05
      - 0.05
      - 0.05
      - 0.05
      - 0.05
      - 0.05
      - 0.05
      - 0.05
      - 0.05
      - 0.05
      - 0.05
      - 0.05
      - 0.05
      - 0.05
      - 0.05
      - 0.05
      - 0.05
      - 0.05
      - 0.05
      - 0.05
      - 0.05
      - 0.05
      - 0.05
      - 0.05
      - 0.05
      - 0.05
      - 0.05
      - 0.05
      - 0.05
      - 0.05
      - 0.05
      - 0.05
      - 0.05
      - 0.05
      - 0.05
      - 0.05
      - 0.05
      - 0.05
      - 0.05
      - 0.05
      - 0.05
      - 0.05
      - 0.05
      - 0.05
      - 0.05
      - 0.05
      - 0.05
      - 0.05
      - 0.05
      - 0.05
      - 0.05
      - 0.05
      - 0.05
      - 0.05
      - 0.05
      - 0.05
      - 0.05
      - 0.05
      - 0.05
      - 0.05
      - 0.05
      - 0.05
      - 0.05
      - 0.05
      - 0.05
      - 0.05
      - 0.05
      - 0.05
      - 0.05
      - 0.05
      - 0.05
      - 0.05
      - 0.05
      - 0.05
      - 0.05
      - 0.05
      - 0.05
      - 0.05
      - 0.05
      - 0.05
      - 0.05
      - 0.05
      - 0.05
      - 0.05
      - 0.05
      - 0.05
      - 0.05
      - 0.05
      - 0.05
      - 0.05
      - 0.05
      - 0.05
      - 0.05
      - 0.05
      - 0.05
      - 0.05
      - 0.05
      - 0.05
      - 0.05
      - 0.05
      - 0.05
      - 0.05
      - 0.05
      - 0.05
      - 0.05
      - 0.05
      - 0.05
      - 0.05
      - 0.05
      - 0.05
      - 0.05
      - 0.05
      - 0.05
      - 0.05
      - 0.05
      - 0.05
      - 0.05
      - 0.05
      - 0.05
      - 0.05
      - 0.05
      - 0.05
      - 0.05
      - 0.05
      - 0.05
      - 0.05
      - 0.05
      - 0.05
      - 0.05
      - 0.05
      - 0.05
      - 0.05
      - 0.05
      - 0.05
      - 0.05
      - 0.05
      - 0.05
      - 0.05
      - 0.05
      - 0.05
      - 0.05
      - 0.05
      - 0.05
      - 0.05
      - 0.05
      - 0.05
      - 0.05
      - 0.05
      - 0.05
      - 0.05
      - 0.05
      - 0.05
      - 0.05
      - 0.05
      - 0.05
      - 0.05
      - 0.05
      - 0.05
      - 0.05
      worldPos: {x: 7.7, y: 0, z: -1.54}
      worldSize: {x: 15, y: 1, z: 15}
    stripe:
      length: 0
      arr: []
      offset: 0
      size: 0
    name: Dst
    argType: 13
  regressionRes:
    vec: {x: 0, y: 0, z: 0, w: 0}
    rect:
      offset:
        x: 0
        z: 0
      size:
        x: 0
        z: 0
    matrix:
      rect:
        offset:
          x: 0
          z: 0
        size:
          x: 0
          z: 0
      count: 0
      arr: []
      worldPos: {x: 0, y: 0, z: 0}
      worldSize: {x: 0, y: 0, z: 0}
    stripe:
      length: 0
      arr: []
      offset: 0
      size: 0
    name: 
    argType: 0
