%YAML 1.1
%TAG !u! tag:unity3d.com,2011:
--- !u!114 &11400000
MonoBehaviour:
  m_ObjectHideFlags: 0
  m_CorrespondingSourceObject: {fileID: 0}
  m_PrefabInstance: {fileID: 0}
  m_PrefabAsset: {fileID: 0}
  m_GameObject: {fileID: 0}
  m_Enabled: 1
  m_EditorHideFlags: 0
  m_Script: {fileID: 11500000, guid: 6c5d4c51b1bb2b34fabb933d7d120e35, type: 3}
  m_Name: CopyInterpolated_offset
  m_EditorClassIdentifier: 
  benchmarkIterations: 1000
  regressionResult: 0
  src:
    rect:
      offset:
        x: 0
        z: 0
      size:
        x: 31
        z: 31
    count: 961
    arr:
    - 0
    - 0
    - 0
    - 0
    - 0
    - 0
    - 0
    - 0
    - 0
    - 0
    - 0
    - 0
    - 0
    - 0
    - 0
    - 0
    - 0
    - 0
    - 0
    - 0
    - 0
    - 0
    - 0
    - 0
    - 0
    - 0
    - 0
    - 0
    - 0
    - 0
    - 0
    - 0
    - 0
    - 0
    - 0
    - 0
    - 0.0648245
    - 0
    - 0
    - 0
    - 0
    - 0
    - 0
    - 0
    - 0
    - 0
    - 0
    - 0
    - 0
    - 0
    - 0
    - 0
    - 0
    - 0
    - 0
    - 0
    - 0
    - 0
    - 0
    - 0
    - 0
    - 0
    - 0
    - 0
    - 0
    - 0.13336213
    - 0.36998966
    - 0.464291
    - 0.36998966
    - 0.13336213
    - 0
    - 0
    - 0
    - 0
    - 0
    - 0
    - 0
    - 0
    - 0
    - 0
    - 0
    - 0
    - 0
    - 0
    - 0
    - 0
    - 0
    - 0
    - 0
    - 0.06486127
    - 0
    - 0
    - 0
    - 0
    - 0
    - 0
    - 0.36998966
    - 0.69829303
    - 0.86375743
    - 0.69829303
    - 0.36998966
    - 0
    - 0
    - 0
    - 0
    - 0
    - 0
    - 0
    - 0
    - 0
    - 0
    - 0
    - 0.0800024
    - 0
    - 0
    - 0
    - 0
    - 0
    - 0.13343775
    - 0.3701997
    - 0.46455428
    - 0.3701997
    - 0.13343775
    - 0
    - 0
    - 0
    - 0.0648245
    - 0.464291
    - 0.86375743
    - 1.263224
    - 0.86375743
    - 0.464291
    - 0.0648245
    - 0
    - 0
    - 0
    - 0
    - 0
    - 0
    - 0
    - 0
    - 0.16458732
    - 0.45661852
    - 0.5729993
    - 0.45661852
    - 0.16458732
    - 0
    - 0
    - 0
    - 0.3701997
    - 0.6986889
    - 0.86424756
    - 0.6986889
    - 0.3701997
    - 0
    - 0
    - 0
    - 0
    - 0.36998966
    - 0.69829303
    - 0.86375743
    - 0.69829303
    - 0.36998966
    - 0
    - 0
    - 0
    - 0
    - 0
    - 0
    - 0
    - 0
    - 0
    - 0.45661852
    - 0.86179024
    - 1.0659963
    - 0.86179024
    - 0.45661852
    - 0
    - 0
    - 0.06486127
    - 0.46455428
    - 0.86424756
    - 1.2639405
    - 0.86424756
    - 0.46455428
    - 0.06486127
    - 0
    - 0
    - 0
    - 0.13336213
    - 0.36998966
    - 0.464291
    - 0.36998966
    - 0.13336213
    - 0
    - 0
    - 0
    - 0
    - 0
    - 0
    - 0
    - 0
    - 0.0800024
    - 0.6517914
    - 1.0659963
    - 1.5589932
    - 1.0659963
    - 0.6466851
    - 0.0800024
    - 0
    - 0
    - 0.3701997
    - 0.6986889
    - 0.86424756
    - 0.6986889
    - 0.3701997
    - 0
    - 0
    - 0
    - 0
    - 0
    - 0
    - 0.0648245
    - 0
    - 0
    - 0
    - 0
    - 0
    - 0
    - 0
    - 0
    - 0
    - 0.16209745
    - 0.44971097
    - 1.0209497
    - 1.3115013
    - 1.3796854
    - 1.2823561
    - 0.984376
    - 0.4205658
    - 0.1515922
    - 0
    - 0.13343775
    - 0.3701997
    - 0.46455428
    - 0.3701997
    - 0.13343775
    - 0
    - 0
    - 0
    - 0
    - 0
    - 0
    - 0
    - 0
    - 0
    - 0
    - 0
    - 0
    - 0
    - 0
    - 0
    - 0
    - 0.44971097
    - 0.8487533
    - 1.2144572
    - 1.3053714
    - 1.4432764
    - 1.2503653
    - 1.1464168
    - 0.7937466
    - 0.4205658
    - 0
    - 0
    - 0
    - 0.06486127
    - 0
    - 0
    - 0
    - 0
    - 0
    - 0
    - 0
    - 0
    - 0
    - 0
    - 0
    - 0
    - 0
    - 0
    - 0
    - 0
    - 0
    - 0.07879213
    - 0.5643311
    - 1.04987
    - 1.535409
    - 1.1235563
    - 1.1720914
    - 1.0606215
    - 1.4359014
    - 0.98182964
    - 0.5277576
    - 0.07368574
    - 0
    - 0
    - 0
    - 0
    - 0
    - 0
    - 0
    - 0
    - 0
    - 0
    - 0
    - 0
    - 0
    - 0
    - 0
    - 0
    - 0
    - 0
    - 0
    - 0
    - 0
    - 0.44971097
    - 0.8487533
    - 1.04987
    - 0.8487533
    - 0.8702765
    - 0.7937466
    - 0.98182964
    - 0.7937466
    - 0.4205658
    - 0
    - 0
    - 0
    - 0
    - 0
    - 0
    - 0
    - 0
    - 0
    - 0
    - 0
    - 0
    - 0
    - 0
    - 0
    - 0
    - 0
    - 0
    - 0
    - 0
    - 0
    - 0
    - 0.16209745
    - 0.44971097
    - 0.5643311
    - 0.44971097
    - 0.31368962
    - 0.4205658
    - 0.5277576
    - 0.4205658
    - 0.1515922
    - 0
    - 0
    - 0
    - 0
    - 0
    - 0
    - 0
    - 0
    - 0
    - 0
    - 0
    - 0
    - 0
    - 0
    - 0
    - 0
    - 0
    - 0
    - 0
    - 0
    - 0
    - 0
    - 0
    - 0
    - 0.07879213
    - 0
    - 0
    - 0
    - 0.07368574
    - 0
    - 0
    - 0
    - 0
    - 0
    - 0
    - 0
    - 0
    - 0
    - 0
    - 0
    - 0
    - 0
    - 0
    - 0
    - 0
    - 0
    - 0
    - 0
    - 0
    - 0
    - 0
    - 0
    - 0
    - 0
    - 0
    - 0
    - 0
    - 0
    - 0
    - 0
    - 0
    - 0
    - 0
    - 0
    - 0
    - 0
    - 0
    - 0
    - 0
    - 0
    - 0
    - 0
    - 0
    - 0
    - 0
    - 0
    - 0
    - 0
    - 0
    - 0
    - 0
    - 0
    - 0
    - 0
    - 0
    - 0
    - 0
    - 0
    - 0
    - 0
    - 0
    - 0
    - 0
    - 0
    - 0
    - 0
    - 0
    - 0
    - 0
    - 0
    - 0
    - 0
    - 0
    - 0
    - 0
    - 0
    - 0
    - 0
    - 0
    - 0
    - 0
    - 0
    - 0
    - 0
    - 0
    - 0
    - 0
    - 0
    - 0
    - 0
    - 0
    - 0
    - 0
    - 0
    - 0
    - 0
    - 0
    - 0
    - 0
    - 0
    - 0
    - 0
    - 0
    - 0
    - 0
    - 0
    - 0
    - 0
    - 0
    - 0
    - 0
    - 0
    - 0
    - 0
    - 0
    - 0
    - 0.063256994
    - 0
    - 0
    - 0
    - 0
    - 0
    - 0
    - 0
    - 0
    - 0
    - 0
    - 0
    - 0
    - 0
    - 0
    - 0
    - 0
    - 0
    - 0
    - 0
    - 0
    - 0
    - 0
    - 0
    - 0
    - 0
    - 0
    - 0
    - 0
    - 0.13013735
    - 0.36104313
    - 0.4530641
    - 0.36104313
    - 0.13013735
    - 0
    - 0
    - 0
    - 0
    - 0
    - 0
    - 0
    - 0
    - 0
    - 0
    - 0
    - 0
    - 0
    - 0
    - 0
    - 0
    - 0
    - 0
    - 0
    - 0
    - 0
    - 0
    - 0
    - 0
    - 0
    - 0
    - 0.36104313
    - 0.6814077
    - 0.8428713
    - 0.6814077
    - 0.36104313
    - 0
    - 0
    - 0
    - 0
    - 0
    - 0
    - 0
    - 0
    - 0
    - 0
    - 0
    - 0
    - 0
    - 0
    - 0
    - 0
    - 0
    - 0
    - 0
    - 0
    - 0
    - 0
    - 0
    - 0
    - 0
    - 0.063256994
    - 0.4530641
    - 0.8428713
    - 1.2326784
    - 0.8428713
    - 0.4530641
    - 0.063256994
    - 0
    - 0
    - 0
    - 0
    - 0
    - 0
    - 0
    - 0
    - 0
    - 0
    - 0
    - 0
    - 0
    - 0
    - 0
    - 0
    - 0
    - 0
    - 0
    - 0
    - 0
    - 0
    - 0
    - 0
    - 0
    - 0.36104313
    - 0.6814077
    - 0.8428713
    - 0.6814077
    - 0.36104313
    - 0
    - 0
    - 0
    - 0
    - 0
    - 0
    - 0
    - 0
    - 0
    - 0
    - 0
    - 0
    - 0
    - 0
    - 0
    - 0
    - 0
    - 0
    - 0
    - 0
    - 0
    - 0
    - 0
    - 0
    - 0
    - 0
    - 0.13013735
    - 0.36104313
    - 0.4530641
    - 0.36104313
    - 0.13013735
    - 0
    - 0
    - 0
    - 0
    - 0
    - 0
    - 0
    - 0
    - 0
    - 0
    - 0
    - 0
    - 0
    - 0
    - 0
    - 0
    - 0
    - 0
    - 0
    - 0
    - 0
    - 0
    - 0
    - 0
    - 0
    - 0
    - 0
    - 0
    - 0.063256994
    - 0
    - 0
    - 0
    - 0
    - 0
    - 0
    - 0
    - 0
    - 0
    - 0
    - 0
    - 0
    - 0
    - 0
    - 0
    - 0
    - 0
    - 0
    - 0
    - 0
    - 0
    - 0
    - 0
    - 0
    - 0
    - 0
    - 0
    - 0
    - 0
    - 0
    - 0
    - 0
    - 0
    - 0
    - 0
    - 0
    - 0
    - 0
    - 0
    - 0
    - 0
    - 0
    - 0
    - 0
    - 0
    - 0
    - 0
    - 0
    - 0
    - 0
    - 0
    - 0.06282992
    - 0
    - 0
    - 0
    - 0
    - 0
    - 0
    - 0
    - 0
    - 0
    - 0
    - 0
    - 0
    - 0
    - 0
    - 0
    - 0
    - 0
    - 0
    - 0.06708784
    - 0
    - 0
    - 0
    - 0
    - 0
    - 0
    - 0
    - 0
    - 0
    - 0.12925874
    - 0.35860553
    - 0.4500052
    - 0.35860553
    - 0.12925874
    - 0
    - 0
    - 0
    - 0
    - 0
    - 0
    - 0
    - 0
    - 0
    - 0
    - 0
    - 0
    - 0
    - 0
    - 0.13801852
    - 0.38290787
    - 0.48050174
    - 0.38290787
    - 0.13801852
    - 0
    - 0
    - 0
    - 0
    - 0
    - 0
    - 0
    - 0.35860553
    - 0.67680717
    - 0.8371808
    - 0.67680717
    - 0.35860553
    - 0
    - 0
    - 0
    - 0
    - 0
    - 0
    - 0
    - 0
    - 0
    - 0
    - 0
    - 0
    - 0
    - 0
    - 0.38290787
    - 0.7226739
    - 0.8939156
    - 0.7226739
    - 0.38290787
    - 0
    - 0
    - 0
    - 0
    - 0
    - 0
    - 0.06282992
    - 0.4500052
    - 0.8371808
    - 1.2243559
    - 0.8371808
    - 0.4500052
    - 0.06282992
    - 0
    - 0
    - 0
    - 0
    - 0
    - 0
    - 0
    - 0
    - 0
    - 0
    - 0
    - 0
    - 0.06708784
    - 0.48050174
    - 0.8939156
    - 1.3073295
    - 0.8939156
    - 0.48050174
    - 0.06708784
    - 0
    - 0
    - 0
    - 0
    - 0
    - 0
    - 0.35860553
    - 0.67680717
    - 0.8371808
    - 0.67680717
    - 0.35860553
    - 0
    - 0
    - 0
    - 0
    - 0
    - 0
    - 0
    - 0
    - 0
    - 0
    - 0
    - 0
    - 0
    - 0
    - 0.38290787
    - 0.7226739
    - 0.8939156
    - 0.7226739
    - 0.38290787
    - 0
    - 0
    - 0
    - 0
    - 0
    - 0
    - 0
    - 0.12925874
    - 0.35860553
    - 0.4500052
    - 0.35860553
    - 0.12925874
    - 0
    - 0
    - 0
    - 0
    - 0
    - 0
    - 0
    - 0
    - 0
    - 0
    - 0
    - 0
    - 0
    - 0
    - 0.13801852
    - 0.38290787
    - 0.48050174
    - 0.38290787
    - 0.13801852
    - 0
    - 0
    - 0
    - 0
    - 0
    - 0
    - 0
    - 0
    - 0
    - 0.06282992
    - 0
    - 0
    - 0
    - 0
    - 0
    - 0
    - 0
    - 0
    - 0
    - 0
    - 0
    - 0
    - 0
    - 0
    - 0
    - 0
    - 0
    - 0
    - 0.06708784
    - 0
    - 0
    - 0
    - 0
    - 0
    - 0
    worldPos: {x: 0, y: 0, z: 0}
    worldSize: {x: 100, y: 1, z: 100}
  dst:
    rect:
      offset:
        x: 0
        z: 0
      size:
        x: 11
        z: 11
    count: 121
    arr:
    - 0
    - 0.032111224
    - 0.054343756
    - 0.0024696686
    - 0
    - 0
    - 0
    - 0
    - 0
    - 0.0036034042
    - 0
    - 0.002400908
    - 0.31828782
    - 0.49966183
    - 0.036229163
    - 0
    - 0.009701156
    - 0.16760129
    - 0.10320289
    - 0.08367098
    - 0.37341845
    - 0.1255063
    - 0.0012004535
    - 0.19995809
    - 0.3182877
    - 0.02140747
    - 0
    - 0.15540303
    - 0.9240679
    - 0.6523927
    - 0.1768985
    - 0.5845023
    - 0.20382182
    - 0
    - 0.0008003023
    - 0.0016006045
    - 0
    - 0.0029182283
    - 0.4633224
    - 1.0598924
    - 0.93214434
    - 0.19011463
    - 0.043586466
    - 0.011797681
    - 0
    - 0
    - 0
    - 0
    - 0
    - 0.101641685
    - 0.20311978
    - 0.19180396
    - 0.038054015
    - 0
    - 0
    - 0
    - 0
    - 0
    - 0
    - 0.0076705976
    - 0.042508435
    - 0.0076705893
    - 0
    - 0
    - 0
    - 0
    - 0
    - 0
    - 0
    - 0
    - 0.13252048
    - 0.5700454
    - 0.13252035
    - 0
    - 0
    - 0
    - 0
    - 0
    - 0
    - 0
    - 0
    - 0.08160138
    - 0.36418226
    - 0.0816013
    - 0
    - 0
    - 0
    - 0
    - 0
    - 0.08105054
    - 0.13162582
    - 0.007618809
    - 0
    - 0.002342849
    - 0
    - 0.034646716
    - 0.16593097
    - 0.034646664
    - 0
    - 0.0034905514
    - 0.36172357
    - 0.5661967
    - 0.0422214
    - 0
    - 0
    - 0
    - 0.16593088
    - 0.7065103
    - 0.16593066
    - 0
    - 0
    - 0.12157563
    - 0.19743845
    - 0.011428196
    - 0
    - 0
    - 0
    - 0.051969994
    - 0.2488961
    - 0.05196992
    - 0
    worldPos: {x: 0, y: 0, z: 0}
    worldSize: {x: 100, y: 1, z: 100}
  reg:
    rect:
      offset:
        x: 0
        z: 0
      size:
        x: 10
        z: 10
    count: 100
    arr:
    - 0
    - 0
    - 0
    - 0
    - 0
    - 0
    - 0
    - 0
    - 0
    - 0
    - 0
    - 0
    - 0
    - 0
    - 0
    - 0
    - 0
    - 0
    - 0
    - 0
    - 0
    - 0
    - 0
    - 0
    - 0
    - 0
    - 0
    - 0
    - 0
    - 0
    - 0
    - 0
    - 0
    - 0
    - 0
    - 0
    - 0
    - 0
    - 0
    - 0
    - 0
    - 0
    - 0
    - 0
    - 0
    - 0
    - 0
    - 0
    - 0
    - 0
    - 0
    - 0
    - 0
    - 0
    - 0
    - 0
    - 0
    - 0
    - 0
    - 0
    - 0
    - 0
    - 0
    - 0
    - 0
    - 0
    - 0
    - 0
    - 0
    - 0
    - 0
    - 0
    - 0
    - 0
    - 0
    - 0
    - 0
    - 0
    - 0
    - 0
    - 0
    - 0
    - 0
    - 0
    - 0
    - 0
    - 0
    - 0
    - 0
    - 0
    - 0
    - 0
    - 0
    - 0
    - 0
    - 0
    - 0
    - 0
    - 0
    - 0
    worldPos: {x: 0, y: 0, z: 0}
    worldSize: {x: 100, y: 1, z: 100}
  srcSource:
    sourceType: 0
    resolution: 512
    tex: {fileID: 0}
    asset: {fileID: 0}
    intensity: 1
    size: 200
    rotation: 0
    seed: 12345
  testFunction: 1
