^C:\Unity\Project\Assets\Tools\.NativeSources\NativePlugins\NativePlugins.vcxproj
C:\Unity\Project\Assets\Tools\Plugins\NativePlugins.lib
C:\Unity\Project\Assets\Tools\Plugins\NativePlugins.exp
C:\Unity\Project\Assets\Tools\Plugins\NativePlugins.ipdb
C:\Unity\Project\Assets\Tools\Plugins\NativePlugins.iobj
^C:\Unity\Project\Assets\Tools\.NativeSources\NativePlugins\NativePlugins.vcxproj
C:\Unity\Project\Assets\Tools\Plugins\NativePlugins.lib
C:\Unity\Project\Assets\Tools\Plugins\NativePlugins.exp
C:\Unity\Project\Assets\Tools\Plugins\NativePlugins.ipdb
C:\Unity\Project\Assets\Tools\Plugins\NativePlugins.iobj
^C:\Unity\Project\Assets\Tools\.NativeSources\NativePlugins\NativePlugins.vcxproj
C:\Unity\Project\Assets\Tools\Plugins\NativePlugins.lib
C:\Unity\Project\Assets\Tools\Plugins\NativePlugins.exp
C:\Unity\Project\Assets\Tools\Plugins\NativePlugins.ipdb
C:\Unity\Project\Assets\Tools\Plugins\NativePlugins.iobj
^D:\Unity\Project\Assets\Tools\.NativeSources\NativePlugins\NativePlugins.vcxproj
D:\Unity\Project\Assets\Tools\Plugins\NativePlugins.lib
D:\Unity\Project\Assets\Tools\Plugins\NativePlugins.exp
^D:\Unity\Project\Assets\Tools\.NativeSources\NativePlugins\NativePlugins.vcxproj
D:\Unity\Project\Assets\Tools\Plugins\NativePlugins.lib
D:\Unity\Project\Assets\Tools\Plugins\NativePlugins.exp
^D:\Unity\Project\Assets\Tools\.NativeSources\NativePlugins\NativePlugins.vcxproj
D:\Unity\Project\Assets\Tools\Plugins\NativePlugins.lib
D:\Unity\Project\Assets\Tools\Plugins\NativePlugins.exp
^D:\Unity\Project\Assets\Tools\.NativeSources\NativePlugins\NativePlugins.vcxproj
D:\Unity\Project\Assets\Tools\Plugins\NativePlugins.lib
D:\Unity\Project\Assets\Tools\Plugins\NativePlugins.exp
^D:\Unity\Project\Assets\Tools\.NativeSources\NativePlugins\NativePlugins.vcxproj
D:\Unity\Project\Assets\Tools\Plugins\NativePlugins.lib
D:\Unity\Project\Assets\Tools\Plugins\NativePlugins.exp
^D:\Unity\Project\Assets\Tools\.NativeSources\NativePlugins\NativePlugins.vcxproj
D:\Unity\Project\Assets\Tools\Plugins\NativePlugins.lib
D:\Unity\Project\Assets\Tools\Plugins\NativePlugins.exp
^D:\Unity\Project\Assets\Tools\.NativeSources\NativePlugins\NativePlugins.vcxproj
D:\Unity\Project\Assets\Tools\Plugins\NativePlugins.lib
D:\Unity\Project\Assets\Tools\Plugins\NativePlugins.exp
^D:\Unity\Project\Assets\Tools\.NativeSources\NativePlugins\NativePlugins.vcxproj
D:\Unity\Project\Assets\Tools\Plugins\NativePlugins.lib
D:\Unity\Project\Assets\Tools\Plugins\NativePlugins.exp
^D:\Unity\Project\Assets\Tools\.NativeSources\NativePlugins\NativePlugins.vcxproj
D:\Unity\Project\Assets\Tools\Plugins\NativePlugins.lib
D:\Unity\Project\Assets\Tools\Plugins\NativePlugins.exp
^D:\Unity\Project\Assets\Tools\.NativeSources\NativePlugins\NativePlugins.vcxproj
D:\Unity\Project\Assets\Tools\Plugins\NativePlugins.lib
D:\Unity\Project\Assets\Tools\Plugins\NativePlugins.exp
^D:\Unity\Project\Assets\Tools\.NativeSources\NativePlugins\NativePlugins.vcxproj
D:\Unity\Project\Assets\Tools\Plugins\NativePlugins.lib
D:\Unity\Project\Assets\Tools\Plugins\NativePlugins.exp
^D:\Unity\Project\Assets\Tools\.NativeSources\NativePlugins\NativePlugins.vcxproj
D:\Unity\Project\Assets\Tools\Plugins\NativePlugins.lib
D:\Unity\Project\Assets\Tools\Plugins\NativePlugins.exp
^D:\Unity\Project\Assets\Tools\.NativeSources\NativePlugins\NativePlugins.vcxproj
D:\Unity\Project\Assets\Tools\Plugins\NativePlugins.lib
D:\Unity\Project\Assets\Tools\Plugins\NativePlugins.exp
^D:\Unity\Project\Assets\Tools\.NativeSources\NativePlugins\NativePlugins.vcxproj
D:\Unity\Project\Assets\Tools\Plugins\NativePlugins.lib
D:\Unity\Project\Assets\Tools\Plugins\NativePlugins.exp
^D:\Unity\Project\Assets\Tools\.NativeSources\NativePlugins\NativePlugins.vcxproj
D:\Unity\Project\Assets\Tools\Plugins\NativePlugins.lib
D:\Unity\Project\Assets\Tools\Plugins\NativePlugins.exp
^D:\Unity\Project\Assets\Tools\.NativeSources\NativePlugins\NativePlugins.vcxproj
D:\Unity\Project\Assets\Tools\Plugins\NativePlugins.lib
D:\Unity\Project\Assets\Tools\Plugins\NativePlugins.exp
^D:\Unity\Project\Assets\Tools\.NativeSources\NativePlugins\NativePlugins.vcxproj
D:\Unity\Project\Assets\Tools\Plugins\NativePlugins.lib
D:\Unity\Project\Assets\Tools\Plugins\NativePlugins.exp
^D:\Unity\Project\Assets\Tools\.NativeSources\NativePlugins\NativePlugins.vcxproj
D:\Unity\Project\Assets\Tools\Plugins\NativePlugins.lib
D:\Unity\Project\Assets\Tools\Plugins\NativePlugins.exp
^D:\Unity\Project\Assets\Tools\.NativeSources\NativePlugins\NativePlugins.vcxproj
D:\Unity\Project\Assets\Tools\Plugins\NativePlugins.lib
D:\Unity\Project\Assets\Tools\Plugins\NativePlugins.exp
^D:\Unity\Project\Assets\Tools\.NativeSources\NativePlugins\NativePlugins.vcxproj
D:\Unity\Project\Assets\Tools\Plugins\NativePlugins.lib
D:\Unity\Project\Assets\Tools\Plugins\NativePlugins.exp
^D:\Unity\Project\Assets\Tools\.NativeSources\NativePlugins\NativePlugins.vcxproj
D:\Unity\Project\Assets\Tools\Plugins\NativePlugins.lib
D:\Unity\Project\Assets\Tools\Plugins\NativePlugins.exp
^D:\Unity\Project\Assets\Tools\.NativeSources\NativePlugins\NativePlugins.vcxproj
D:\Unity\Project\Assets\Tools\Plugins\NativePlugins.lib
D:\Unity\Project\Assets\Tools\Plugins\NativePlugins.exp
