%YAML 1.1
%TAG !u! tag:unity3d.com,2011:
--- !u!114 &11400000
MonoBehaviour:
  m_ObjectHideFlags: 0
  m_CorrespondingSourceObject: {fileID: 0}
  m_PrefabInstance: {fileID: 0}
  m_PrefabAsset: {fileID: 0}
  m_GameObject: {fileID: 0}
  m_Enabled: 1
  m_EditorHideFlags: 0
  m_Script: {fileID: 11500000, guid: f7838d870e0dd184db92ec08cda37eec, type: 3}
  m_Name: DownsampleLinear_25x
  m_EditorClassIdentifier: Den.Tools.Tests:Den.Tools.Tests:StripeAssetTester
  benchmarkIterations: 1000
  regressionResult: 1
  src:
    length: 26
    arr:
    - 0
    - 1
    - 0
    - 0
    - 0
    - 1
    - 1
    - 0
    - 0
    - 0
    - 1
    - 1
    - 0
    - 0
    - 0
    - 1
    - 1
    - 0
    - 0
    - 0
    - 0
    - 1
    - 1
    - 0
    - 0
    - 0
    offset: 0
    size: 25
  dst:
    length: 11
    arr:
    - 0.4
    - 0.15384616
    - 0.6666666
    - 0.15384619
    - 0.6666666
    - 0.15384604
    - 0.6666667
    - 0.07692302
    - 0.4999999
    - 0.30769235
    - 0
    offset: 0.5
    size: 25
  photoshop:
    length: 11
    arr:
    - 0.5
    - 0
    - 1
    - 0
    - 1
    - 0
    - 1
    - 0
    - 0.5
    - 0.5
    - 0
    offset: 0.5
    size: 25
  reg:
    length: 11
    arr:
    - 0.4
    - 0.15384616
    - 0.6666666
    - 0.15384619
    - 0.6666666
    - 0.15384604
    - 0.6666667
    - 0.07692302
    - 0.4999999
    - 0.30769235
    - 0
    offset: 0.5
    size: 25
  photoshopPreset: 0
  testFunction: 2
