%YAML 1.1
%TAG !u! tag:unity3d.com,2011:
--- !u!114 &11400000
MonoBehaviour:
  m_ObjectHideFlags: 0
  m_CorrespondingSourceObject: {fileID: 0}
  m_PrefabInstance: {fileID: 0}
  m_PrefabAsset: {fileID: 0}
  m_GameObject: {fileID: 0}
  m_Enabled: 1
  m_EditorHideFlags: 0
  m_Script: {fileID: 11500000, guid: f7838d870e0dd184db92ec08cda37eec, type: 3}
  m_Name: DownscaleNN_2x
  m_EditorClassIdentifier: Den.Tools.Tests:Den.Tools.Tests:StripeAssetTester
  benchmarkIterations: 1000
  regressionResult: 0
  src:
    length: 24
    arr:
    - 0
    - 1
    - 0
    - 0
    - 0
    - 1
    - 1
    - 0
    - 0
    - 0
    - 1
    - 1
    - 0
    - 0
    - 0
    - 1
    - 1
    - 0
    - 0
    - 0
    - 0
    - 1
    - 1
    - 0
    offset: 0
    size: 24
  dst:
    length: 12
    arr:
    - 1
    - 0
    - 1
    - 0
    - 0
    - 1
    - 0
    - 1
    - 0
    - 0
    - 1
    - 0
    offset: 0
    size: 24
  photoshop:
    length: 0
    arr: []
    offset: 0
    size: 0
  reg:
    length: 0
    arr: []
    offset: 0
    size: 0
  photoshopPreset: 0
  testFunction: 0
