%YAML 1.1
%TAG !u! tag:unity3d.com,2011:
--- !u!114 &11400000
MonoBehaviour:
  m_ObjectHideFlags: 0
  m_CorrespondingSourceObject: {fileID: 0}
  m_PrefabInstance: {fileID: 0}
  m_PrefabAsset: {fileID: 0}
  m_GameObject: {fileID: 0}
  m_Enabled: 1
  m_EditorHideFlags: 0
  m_Script: {fileID: 11500000, guid: f7838d870e0dd184db92ec08cda37eec, type: 3}
  m_Name: DownsampleLinear3_withOffset
  m_EditorClassIdentifier: Den.Tools.Tests:Den.Tools.Tests:StripeAssetTester
  benchmarkIterations: 1000
  regressionResult: 0
  src:
    length: 48
    arr:
    - 0.29333335
    - 0.35199994
    - 0.2457639
    - 0.14320487
    - 0.46519253
    - 0.3936397
    - 0.6773333
    - 0.09788819
    - 0.7893334
    - 0.37694404
    - 0.8062608
    - 0.82534164
    - 0.82057136
    - 0.8181863
    - 0.20760244
    - 0.73600006
    - 0.82772666
    - 0.6506666
    - 0.20760244
    - 0.53866655
    - 0.42666668
    - 0.88735396
    - 0.31466654
    - 0.2506665
    - 0.18133321
    - 0.3936397
    - 0.22429809
    - 0.4213332
    - 0.6773333
    - 0.35547826
    - 0.14320487
    - 0.20044713
    - 0.08596261
    - 0.9280001
    - 0.23145334
    - 0.6416895
    - 0.59733325
    - 0.33599994
    - 0.19199991
    - 0.54390055
    - 0.6178385
    - 0.1706665
    - 0.033490688
    - 0.028720355
    - 0.054956403
    - 0.14081979
    - 0.81066674
    - 0.78400004
    offset: 1
    size: 24
  dst:
    length: 38
    arr:
    - 0.5928101
    - 0.19021109
    - 0.38469568
    - 0.4439032
    - 0.46004146
    - 0.50123143
    - 0.46285826
    - 0.81023586
    - 0.82335424
    - 0.81908035
    - 0.3313834
    - 0.7589314
    - 0.7465743
    - 0.35529047
    - 0.48795038
    - 0.56103325
    - 0.60101074
    - 0.26933292
    - 0.21364945
    - 0.33719248
    - 0.33102533
    - 0.61333376
    - 0.3335095
    - 0.16467085
    - 0.1336644
    - 0.75257564
    - 0.3169194
    - 0.6232074
    - 0.43400025
    - 0.23066293
    - 0.5623841
    - 0.41288495
    - 0.07921593
    - 0.03150292
    - 0.08000006
    - 0.4757425
    - 0.7917793
    - 0.065332554
    offset: 2.5
    size: 24
  photoshop:
    length: 0
    arr: []
    offset: 0
    size: 0
  reg:
    length: 0
    arr: []
    offset: 0
    size: 0
  photoshopPreset: 0
  testFunction: 2
