%YAML 1.1
%TAG !u! tag:unity3d.com,2011:
--- !u!114 &11400000
MonoBehaviour:
  m_ObjectHideFlags: 0
  m_CorrespondingSourceObject: {fileID: 0}
  m_PrefabInstance: {fileID: 0}
  m_PrefabAsset: {fileID: 0}
  m_GameObject: {fileID: 0}
  m_Enabled: 1
  m_EditorHideFlags: 0
  m_Script: {fileID: 11500000, guid: f7838d870e0dd184db92ec08cda37eec, type: 3}
  m_Name: DownsampleLinear0
  m_EditorClassIdentifier: Den.Tools.Tests:Den.Tools.Tests:StripeAssetTester
  benchmarkIterations: 1000
  regressionResult: 1
  src:
    length: 7
    arr:
    - 0.50637144
    - 0.50030035
    - 0.5033359
    - 0.5033359
    - 0.50030035
    - 0.5033359
    - 0.5033359
    offset: 0
    size: 6
  dst:
    length: 5
    arr:
    - 0.5021217
    - 0.5033359
    - 0.5015146
    - 0.5033359
    - 0.5033359
    offset: 1
    size: 6
  photoshop:
    length: 0
    arr: []
    offset: 0
    size: 0
  reg:
    length: 5
    arr:
    - 0.5021217
    - 0.50333595
    - 0.5015146
    - 0.5033359
    - 0.5033359
    offset: 1
    size: 6
  photoshopPreset: 0
  testFunction: 2
