%YAML 1.1
%TAG !u! tag:unity3d.com,2011:
--- !u!114 &11400000
MonoBehaviour:
  m_ObjectHideFlags: 0
  m_CorrespondingSourceObject: {fileID: 0}
  m_PrefabInstance: {fileID: 0}
  m_PrefabAsset: {fileID: 0}
  m_GameObject: {fileID: 0}
  m_Enabled: 1
  m_EditorHideFlags: 0
  m_Script: {fileID: 11500000, guid: f7838d870e0dd184db92ec08cda37eec, type: 3}
  m_Name: UpsampleLinear
  m_EditorClassIdentifier: Den.Tools.Tests:Den.Tools.Tests:StripeAssetTester
  benchmarkIterations: 1000
  src:
    length: 12
    arr:
    - 0.0639999
    - 0.30628574
    - 0.5577143
    - 0.79085714
    - 0.96457154
    - 0.38857144
    - 0.2239999
    - 0
    - 0.32457134
    - 0.6765715
    - 0.90057147
    - 0.45714286
    offset: 0
    size: 24
  dst:
    length: 48
    arr:
    - 0.0639999
    - 0.12457136
    - 0.18514282
    - 0.24571428
    - 0.30628574
    - 0.3691429
    - 0.432
    - 0.49485713
    - 0.5577143
    - 0.616
    - 0.6742857
    - 0.7325714
    - 0.79085714
    - 0.83428574
    - 0.87771434
    - 0.92114294
    - 0.96457154
    - 0.82057154
    - 0.6765715
    - 0.53257143
    - 0.38857144
    - 0.34742856
    - 0.30628568
    - 0.2651428
    - 0.2239999
    - 0.16799992
    - 0.11199995
    - 0.055999976
    - 0
    - 0.081142835
    - 0.16228567
    - 0.2434285
    - 0.32457134
    - 0.41257137
    - 0.5005714
    - 0.5885714
    - 0.6765715
    - 0.7325715
    - 0.7885715
    - 0.8445715
    - 0.90057147
    - 0.78971434
    - 0.67885715
    - 0.568
    - 0.45714286
    - 0.45714286
    - 0.45714286
    - 0.45714286
    offset: 0
    size: 24
  photoshop:
    length: 0
    arr:
    - 0
    - 0.26
    - 0.88
    - 0.88
    - 0
    - 0
    - 0
    - 0
    - 0.23
    - 0.77
    - 1
    - 1
    - 0.77
    - 0.23
    - 0
    offset: 0
    size: 48
  photoshopPreset: 0
  testFunction: 1
