%YAML 1.1
%TAG !u! tag:unity3d.com,2011:
--- !u!114 &11400000
MonoBehaviour:
  m_ObjectHideFlags: 0
  m_CorrespondingSourceObject: {fileID: 0}
  m_PrefabInstance: {fileID: 0}
  m_PrefabAsset: {fileID: 0}
  m_GameObject: {fileID: 0}
  m_Enabled: 1
  m_EditorHideFlags: 0
  m_Script: {fileID: 11500000, guid: f7838d870e0dd184db92ec08cda37eec, type: 3}
  m_Name: UpsampleCubic
  m_EditorClassIdentifier: Den.Tools.Tests:Den.Tools.Tests:StripeAssetTester
  benchmarkIterations: 1000
  regressionResult: 0
  src:
    length: 24
    arr:
    - 0.18880005
    - 0.40320006
    - 0.62720007
    - 0.8128
    - 0.9568001
    - 0.78720003
    - 0.6112001
    - 0.3872001
    - 0.28800014
    - 0.1376001
    - 0.144
    - 0.1536001
    - 0.16
    - 0.3840001
    - 0.5440001
    - 0.7210667
    - 0.81280005
    - 0.75733346
    - 0.77226675
    - 0.81066674
    - 0.7210667
    - 0.7865901
    - 0.7696696
    - 0.23680004
    offset: 0
    size: 24
  dst:
    length: 48
    arr:
    - 0.18880005
    - 0.27945334
    - 0.39849302
    - 0.5096531
    - 0.6184088
    - 0.7150501
    - 0.80219
    - 0.89330846
    - 0.9558525
    - 0.9110468
    - 0.8071002
    - 0.7224344
    - 0.6360451
    - 0.52850467
    - 0.41428334
    - 0.34614536
    - 0.3063854
    - 0.23835054
    - 0.15734535
    - 0.12789403
    - 0.13963334
    - 0.14651228
    - 0.15150584
    - 0.15017907
    - 0.14303897
    - 0.19882886
    - 0.32065323
    - 0.42195815
    - 0.4970811
    - 0.5781032
    - 0.6702766
    - 0.7434508
    - 0.79573303
    - 0.8118142
    - 0.7783547
    - 0.7556535
    - 0.7616512
    - 0.7760024
    - 0.80318344
    - 0.8081728
    - 0.7779851
    - 0.70805764
    - 0.5462501
    - 0.46144858
    - 0.6465597
    - 0.76681334
    - 0.5151656
    - 0.23680004
    offset: 0
    size: 24
  photoshop:
    length: 0
    arr: []
    offset: 0
    size: 24
  reg:
    length: 0
    arr: []
    offset: 0
    size: 0
  photoshopPreset: 0
  testFunction: 3
