%YAML 1.1
%TAG !u! tag:unity3d.com,2011:
--- !u!114 &11400000
MonoBehaviour:
  m_ObjectHideFlags: 0
  m_CorrespondingSourceObject: {fileID: 0}
  m_PrefabInstance: {fileID: 0}
  m_PrefabAsset: {fileID: 0}
  m_GameObject: {fileID: 0}
  m_Enabled: 1
  m_EditorHideFlags: 0
  m_Script: {fileID: 11500000, guid: f7838d870e0dd184db92ec08cda37eec, type: 3}
  m_Name: UpsampleCubic_3x
  m_EditorClassIdentifier: Den.Tools.Tests:Den.Tools.Tests:StripeAssetTester
  benchmarkIterations: 1000
  src:
    length: 24
    arr:
    - 0
    - 1
    - 0
    - 0
    - 0
    - 1
    - 1
    - 0
    - 0
    - 0
    - 1
    - 1
    - 0
    - 0
    - 0
    - 1
    - 1
    - 0
    - 0
    - 0
    - 0
    - 1
    - 1
    - 0
    offset: 0
    size: 24
  dst:
    length: 72
    arr:
    - 0.11111108
    - 0
    - 0.3333333
    - 0.77777773
    - 1
    - 0.77777773
    - 0.33333322
    - 0
    - -0.074074075
    - -0.037037022
    - 0
    - -0.037037022
    - -0.074074075
    - 0
    - 0.29629648
    - 0.7037035
    - 1
    - 1.1111112
    - 1.1111112
    - 1
    - 0.7037035
    - 0.29629648
    - 0
    - -0.074074075
    - -0.037036985
    - 0
    - -0.037036985
    - -0.074074075
    - 0
    - 0.2962959
    - 0.70370406
    - 1
    - 1.111111
    - 1.111111
    - 1
    - 0.70370406
    - 0.2962959
    - 0
    - -0.074074075
    - -0.037036985
    - 0
    - -0.037036985
    - -0.074074075
    - 0
    - 0.2962959
    - 0.70370406
    - 1
    - 1.111111
    - 1.1111112
    - 1
    - 0.703703
    - 0.29629704
    - 0
    - -0.074074075
    - -0.03703714
    - 0
    - 0
    - 0
    - 0
    - -0.03703714
    - -0.074074075
    - 0
    - 0.29629704
    - 0.703703
    - 1
    - 1.1111112
    - 1.1111112
    - 1
    - 0.703703
    - 0.29629704
    - 0
    - -0.074074075
    offset: 0
    size: 24
  photoshop:
    length: 72
    arr:
    - 0
    - 0
    - 0.37
    - 0.79
    - 1
    - 0.79
    - 0.37
    - 0
    - 0
    - 0
    - 0
    - 0
    - 0
    - 0
    - 0.32
    - 0.68
    - 1
    - 1
    - 1
    - 1
    - 0.68
    - 0.32
    - 0
    - 0
    - 0
    - 0
    - 0
    - 0
    - 0
    - 0
    - 0
    - 0
    - 0
    - 0
    - 0
    - 0
    - 0
    - 0
    - 0
    - 0
    - 0
    - 0
    - 0
    - 0
    - 0
    - 0
    - 0
    - 0
    - 0
    - 0
    - 0
    - 0
    - 0
    - 0
    - 0
    - 0
    - 0
    - 0
    - 0
    - 0
    - 0
    - 0
    - 0
    - 0
    - 0
    - 0
    - 0
    - 0
    - 0
    - 0
    - 0
    - 0
    offset: 0
    size: 24
  photoshopPreset: 9
  testFunction: 3
