%YAML 1.1
%TAG !u! tag:unity3d.com,2011:
--- !u!114 &11400000
MonoBehaviour:
  m_ObjectHideFlags: 0
  m_CorrespondingSourceObject: {fileID: 0}
  m_PrefabInstance: {fileID: 0}
  m_PrefabAsset: {fileID: 0}
  m_GameObject: {fileID: 0}
  m_Enabled: 1
  m_EditorHideFlags: 0
  m_Script: {fileID: 11500000, guid: f7838d870e0dd184db92ec08cda37eec, type: 3}
  m_Name: UpscaleNN_2x
  m_EditorClassIdentifier: 
  src:
    length: 24
    arr:
    - 0
    - 1
    - 0
    - 0
    - 0
    - 1
    - 1
    - 0
    - 0
    - 0
    - 1
    - 1
    - 0
    - 0
    - 0
    - 1
    - 1
    - 0
    - 0
    - 0
    - 0
    - 1
    - 1
    - 0
  dst:
    length: 48
    arr:
    - 0
    - 0
    - 0
    - 1
    - 1
    - 0
    - 0
    - 0
    - 0
    - 0
    - 0
    - 1
    - 1
    - 1
    - 1
    - 0
    - 0
    - 0
    - 0
    - 0
    - 0
    - 1
    - 1
    - 1
    - 1
    - 0
    - 0
    - 0
    - 0
    - 0
    - 0
    - 1
    - 1
    - 1
    - 1
    - 0
    - 0
    - 0
    - 0
    - 0
    - 0
    - 0
    - 0
    - 1
    - 1
    - 1
    - 1
    - 0
  photoshop:
    length: 0
    arr: []
  srcOffset: 0.1
  srcSize: 0
  dstOffset: 0
  dstSize: 0
  testFunction: 0
  photoshopPreset: 0
