%YAML 1.1
%TAG !u! tag:unity3d.com,2011:
--- !u!114 &11400000
MonoBehaviour:
  m_ObjectHideFlags: 0
  m_CorrespondingSourceObject: {fileID: 0}
  m_PrefabInstance: {fileID: 0}
  m_PrefabAsset: {fileID: 0}
  m_GameObject: {fileID: 0}
  m_Enabled: 1
  m_EditorHideFlags: 0
  m_Script: {fileID: 11500000, guid: 078937f36883967448e07a06e2e6effa, type: 3}
  m_Name: StripeRegressionSet
  m_EditorClassIdentifier: 
  tests:
  - {fileID: 11400000, guid: d94ac2ec26a4356488164b478d23ae2e, type: 2}
  - {fileID: 11400000, guid: d94ac2ec26a4356488164b478d23ae2e, type: 2}
  - {fileID: 11400000, guid: d94ac2ec26a4356488164b478d23ae2e, type: 2}
  sets: []
  result: 0
