%YAML 1.1
%TAG !u! tag:unity3d.com,2011:
--- !u!114 &11400000
MonoBehaviour:
  m_ObjectHideFlags: 0
  m_CorrespondingSourceObject: {fileID: 0}
  m_PrefabInstance: {fileID: 0}
  m_PrefabAsset: {fileID: 0}
  m_GameObject: {fileID: 0}
  m_Enabled: 1
  m_EditorHideFlags: 0
  m_Script: {fileID: 11500000, guid: d9ce27a1b2bf5a2458fbe6a7968c8221, type: 3}
  m_Name: PaddingMips
  m_EditorClassIdentifier: 
  tex: {fileID: 2800000, guid: a940470171cacc041bba4ed4db0adcb2, type: 3}
  maskTex: {fileID: 2800000, guid: ed5d84ed71bcf0c4498e6cd316b0f775, type: 3}
  resize: 1
  resizeRect:
    offset:
      x: 0
      z: 0
    size:
      x: 100
      z: 100
  guiLoad: 0
  guiSrc: 1
  guiSrcMask: 1
  guiMask: 0
  guiTest: 1
  guiBenchmark: 1
  guiDst: 1
  guiDstMask: 0
  autoTest: 1
  benchmarkIterations: 5
  benchmarkApproaches: 5
  benchmarkIterationTime: 38.6
  benchmarkTotalTime: 1029
  benchmarkPerMegapixelTime: 147.247314453125
  serializedTester:
  - refId: 0
    type: Plugins.Tests.MatrixTester+PaddingMips, Tests, Version=0.0.0.0, Culture=neutral,
      PublicKeyToken=null
    fields:
    - count
    - showMask
    values:
    - t: 1
      v: 4
    - t: 3
      v: 0
    special: 
    uniObj: {fileID: 0}
