%YAML 1.1
%TAG !u! tag:unity3d.com,2011:
--- !u!114 &11400000
MonoBehaviour:
  m_ObjectHideFlags: 0
  m_CorrespondingSourceObject: {fileID: 0}
  m_PrefabInstance: {fileID: 0}
  m_PrefabAsset: {fileID: 0}
  m_GameObject: {fileID: 0}
  m_Enabled: 1
  m_EditorHideFlags: 0
  m_Script: {fileID: 11500000, guid: d9ce27a1b2bf5a2458fbe6a7968c8221, type: 3}
  m_Name: ResizeDownUp
  m_EditorClassIdentifier: 
  tex: {fileID: 2800000, guid: e02af7631cacd6d4da9fe75ebac26953, type: 3}
  maskTex: {fileID: 0}
  resize: 0
  resizeRect:
    offset:
      x: 0
      z: 0
    size:
      x: 0
      z: 0
  guiLoad: 0
  guiSrc: 1
  guiSrcMask: 0
  guiMask: 0
  guiTest: 1
  guiBenchmark: 1
  guiDst: 1
  guiDstMask: 0
  autoTest: 0
  benchmarkIterations: 5
  benchmarkApproaches: 5
  benchmarkIterationTime: 1
  benchmarkTotalTime: 45
  benchmarkPerMegapixelTime: 15.2587890625
  serializedTester:
  - refId: 0
    type: Plugins.Tests.MatrixTester+Resize, ToolsTests, Version=0.0.0.0, Culture=neutral,
      PublicKeyToken=null
    fields:
    - dstRect
    - fast
    values:
    - t: 255
      v: 1
    - t: 3
      v: 0
    special: 
    uniObj: {fileID: 0}
  - refId: 1
    type: Plugins.CoordRect, Tools, Version=0.0.0.0, Culture=neutral, PublicKeyToken=null
    fields:
    - offset
    - size
    values:
    - t: 255
      v: 2
    - t: 255
      v: 3
    special: 
    uniObj: {fileID: 0}
  - refId: 2
    type: Plugins.Coord, Tools, Version=0.0.0.0, Culture=neutral, PublicKeyToken=null
    fields:
    - x
    - z
    values:
    - t: 1
      v: 0
    - t: 1
      v: 0
    special: 
    uniObj: {fileID: 0}
  - refId: 3
    type: Plugins.Coord, Tools, Version=0.0.0.0, Culture=neutral, PublicKeyToken=null
    fields:
    - x
    - z
    values:
    - t: 1
      v: 100
    - t: 1
      v: 300
    special: 
    uniObj: {fileID: 0}
