%YAML 1.1
%TAG !u! tag:unity3d.com,2011:
--- !u!114 &11400000
MonoBehaviour:
  m_ObjectHideFlags: 0
  m_CorrespondingSourceObject: {fileID: 0}
  m_PrefabInstance: {fileID: 0}
  m_PrefabAsset: {fileID: 0}
  m_GameObject: {fileID: 0}
  m_Enabled: 1
  m_EditorHideFlags: 0
  m_Script: {fileID: 11500000, guid: d9ce27a1b2bf5a2458fbe6a7968c8221, type: 3}
  m_Name: ChangeRange
  m_EditorClassIdentifier: 
  tex: {fileID: 0}
  maskTex: {fileID: 0}
  resize: 0
  resizeRect:
    offset:
      x: 0
      z: 0
    size:
      x: 0
      z: 0
  guiLoad: 0
  guiSrc: 0
  guiSrcMask: 0
  guiMask: 0
  guiTest: 1
  guiBenchmark: 0
  guiDst: 0
  guiDstMask: 0
  autoTest: 0
  benchmarkIterations: 5
  benchmarkApproaches: 5
  benchmarkIterationTime: 0
  benchmarkTotalTime: 0
  benchmarkPerMegapixelTime: 0
  serializedTester: []
