%YAML 1.1
%TAG !u! tag:unity3d.com,2011:
--- !u!114 &11400000
MonoBehaviour:
  m_ObjectHideFlags: 0
  m_CorrespondingSourceObject: {fileID: 0}
  m_PrefabInstance: {fileID: 0}
  m_PrefabAsset: {fileID: 0}
  m_GameObject: {fileID: 0}
  m_Enabled: 1
  m_EditorHideFlags: 0
  m_Script: {fileID: 11500000, guid: 525ea610e05109241bd0dfc7332dbbbf, type: 3}
  m_Name: DownsampleLinear_negative
  m_EditorClassIdentifier: 
  className: Den.Tools.Matrices.Stripe
  fnName: DownsampleLinear
  obj:
    vec: {x: 0, y: 0, z: 0, w: 0}
    rect:
      offset:
        x: 0
        z: 0
      size:
        x: 0
        z: 0
    matrix:
      rect:
        offset:
          x: 0
          z: 0
        size:
          x: 0
          z: 0
      count: 0
      arr: []
      worldPos: {x: 0, y: 0, z: 0}
      worldSize: {x: 0, y: 0, z: 0}
    stripe:
      length: 0
      arr: []
      offset: 0
      size: 0
    name: 
    argType: 0
  arguments:
  - vec: {x: 0, y: 0, z: 0, w: 0}
    rect:
      offset:
        x: 0
        z: 0
      size:
        x: 0
        z: 0
    matrix:
      rect:
        offset:
          x: 0
          z: 0
        size:
          x: 0
          z: 0
      count: 0
      arr: []
      worldPos: {x: 0, y: 0, z: 0}
      worldSize: {x: 0, y: 0, z: 0}
    stripe:
      length: 31
      arr:
      - 0.56738067
      - 0.4598769
      - 0.36051738
      - 0.31328094
      - 0.30187905
      - 0.34260017
      - 0.35888854
      - 0.41101158
      - 0.44033077
      - 0.47779423
      - 0.5103711
      - 0.58366907
      - 0.6032152
      - 0.66185355
      - 0.7465535
      - 0.7595842
      - 0.71234775
      - 0.49408263
      - 0.4631346
      - 0.45499042
      - 0.6113594
      - 0.7139766
      - 0.7432957
      - 0.43870193
      - 0.42892888
      - 0.4142693
      - 0.40123853
      - 0.40449622
      - 0.45661926
      - 0.48430955
      - 0.48593846
      offset: -11
      size: 10
    name: Src
    argType: 14
  - vec: {x: 0, y: 0, z: 0, w: 0}
    rect:
      offset:
        x: 0
        z: 0
      size:
        x: 0
        z: 0
    matrix:
      rect:
        offset:
          x: 0
          z: 0
        size:
          x: 0
          z: 0
      count: 0
      arr: []
      worldPos: {x: 0, y: 0, z: 0}
      worldSize: {x: 0, y: 0, z: 0}
    stripe:
      length: 13
      arr:
      - 0.50856125
      - 0.35155874
      - 0.33996895
      - 0.42322788
      - 0.52152234
      - 0.6433932
      - 0.71773547
      - 0.5136288
      - 0.59770215
      - 0.5844836
      - 0.41577283
      - 0.43462983
      - 0.48213777
      offset: -11
      size: 10
    name: Dst
    argType: 14
  result:
    vec: {x: 0, y: 0, z: 0, w: 0}
    rect:
      offset:
        x: 0
        z: 0
      size:
        x: 0
        z: 0
    matrix:
      rect:
        offset:
          x: 0
          z: 0
        size:
          x: 0
          z: 0
      count: 0
      arr: []
      worldPos: {x: 0, y: 0, z: 0}
      worldSize: {x: 0, y: 0, z: 0}
    stripe:
      length: 0
      arr: []
      offset: 0
      size: 0
    name: 
    argType: 0
  benchmarkIterations: 1000
  benchmarkReferences: 0
  benchmarkCurrent: 0
  regressionObj:
    vec: {x: 0, y: 0, z: 0, w: 0}
    rect:
      offset:
        x: 0
        z: 0
      size:
        x: 0
        z: 0
    matrix:
      rect:
        offset:
          x: 0
          z: 0
        size:
          x: 0
          z: 0
      count: 0
      arr: []
      worldPos: {x: 0, y: 0, z: 0}
      worldSize: {x: 0, y: 0, z: 0}
    stripe:
      length: 0
      arr: []
      offset: 0
      size: 0
    name: 
    argType: 0
  regressionArguments:
  - vec: {x: 0, y: 0, z: 0, w: 0}
    rect:
      offset:
        x: 0
        z: 0
      size:
        x: 0
        z: 0
    matrix:
      rect:
        offset:
          x: 0
          z: 0
        size:
          x: 0
          z: 0
      count: 0
      arr: []
      worldPos: {x: 0, y: 0, z: 0}
      worldSize: {x: 0, y: 0, z: 0}
    stripe:
      length: 31
      arr:
      - 0.56738067
      - 0.4598769
      - 0.36051738
      - 0.31328094
      - 0.30187905
      - 0.34260017
      - 0.35888854
      - 0.41101158
      - 0.44033077
      - 0.47779423
      - 0.5103711
      - 0.58366907
      - 0.6032152
      - 0.66185355
      - 0.7465535
      - 0.7595842
      - 0.71234775
      - 0.49408263
      - 0.4631346
      - 0.45499042
      - 0.6113594
      - 0.7139766
      - 0.7432957
      - 0.43870193
      - 0.42892888
      - 0.4142693
      - 0.40123853
      - 0.40449622
      - 0.45661926
      - 0.48430955
      - 0.48593846
      offset: -11
      size: 10
    name: Src
    argType: 14
  - vec: {x: 0, y: 0, z: 0, w: 0}
    rect:
      offset:
        x: 0
        z: 0
      size:
        x: 0
        z: 0
    matrix:
      rect:
        offset:
          x: 0
          z: 0
        size:
          x: 0
          z: 0
      count: 0
      arr: []
      worldPos: {x: 0, y: 0, z: 0}
      worldSize: {x: 0, y: 0, z: 0}
    stripe:
      length: 13
      arr:
      - 0.50856125
      - 0.35155874
      - 0.33996895
      - 0.42322788
      - 0.52152234
      - 0.6433932
      - 0.71773547
      - 0.5136288
      - 0.59770215
      - 0.5844836
      - 0.41577283
      - 0.43462983
      - 0.48213777
      offset: -11
      size: 10
    name: Dst
    argType: 14
  regressionRes:
    vec: {x: 0, y: 0, z: 0, w: 0}
    rect:
      offset:
        x: 0
        z: 0
      size:
        x: 0
        z: 0
    matrix:
      rect:
        offset:
          x: 0
          z: 0
        size:
          x: 0
          z: 0
      count: 0
      arr: []
      worldPos: {x: 0, y: 0, z: 0}
      worldSize: {x: 0, y: 0, z: 0}
    stripe:
      length: 0
      arr: []
      offset: 0
      size: 0
    name: 
    argType: 0
