%YAML 1.1
%TAG !u! tag:unity3d.com,2011:
--- !u!114 &11400000
MonoBehaviour:
  m_ObjectHideFlags: 0
  m_CorrespondingSourceObject: {fileID: 0}
  m_PrefabInstance: {fileID: 0}
  m_PrefabAsset: {fileID: 0}
  m_GameObject: {fileID: 0}
  m_Enabled: 1
  m_EditorHideFlags: 0
  m_Script: {fileID: 11500000, guid: 525ea610e05109241bd0dfc7332dbbbf, type: 3}
  m_Name: Upsample_realMatrixExample4
  m_EditorClassIdentifier: 
  className: Den.Tools.Matrices.Stripe
  fnName: UpsampleCubic_DoubleMarginsTest
  obj:
    vec: {x: 0, y: 0, z: 0, w: 0}
    rect:
      offset:
        x: 0
        z: 0
      size:
        x: 0
        z: 0
    matrix:
      rect:
        offset:
          x: 0
          z: 0
        size:
          x: 0
          z: 0
      count: 0
      arr: []
      worldPos: {x: 0, y: 0, z: 0}
      worldSize: {x: 0, y: 0, z: 0}
    stripe:
      length: 0
      arr: []
      offset: 0
      size: 0
    name: 
    argType: 0
  arguments:
  - vec: {x: 0, y: 0, z: 0, w: 0}
    rect:
      offset:
        x: 0
        z: 0
      size:
        x: 0
        z: 0
    matrix:
      rect:
        offset:
          x: 0
          z: 0
        size:
          x: 0
          z: 0
      count: 0
      arr: []
      worldPos: {x: 0, y: 0, z: 0}
      worldSize: {x: 0, y: 0, z: 0}
    stripe:
      length: 8
      arr:
      - 0.7330782
      - 0.9767854
      - 0.9940196
      - 0.98971105
      - 0.94231695
      - 0.8022889
      - 0.66656935
      - 0.5292624
      offset: 3
      size: 6
    name: Src
    argType: 14
  - vec: {x: 0, y: 0, z: 0, w: 0}
    rect:
      offset:
        x: 0
        z: 0
      size:
        x: 0
        z: 0
    matrix:
      rect:
        offset:
          x: 0
          z: 0
        size:
          x: 0
          z: 0
      count: 0
      arr: []
      worldPos: {x: 0, y: 0, z: 0}
      worldSize: {x: 0, y: 0, z: 0}
    stripe:
      length: 8
      arr:
      - 0.5291594
      - 0.37580672
      - 0.21065377
      - 0.028521674
      - 0.011542607
      - 0.096875995
      - 0.5062608
      - 0.3320776
      offset: 9
      size: 7
    name: Src2
    argType: 14
  - vec: {x: 0, y: 0, z: 0, w: 0}
    rect:
      offset:
        x: 0
        z: 0
      size:
        x: 0
        z: 0
    matrix:
      rect:
        offset:
          x: 0
          z: 0
        size:
          x: 0
          z: 0
      count: 0
      arr: []
      worldPos: {x: 0, y: 0, z: 0}
      worldSize: {x: 0, y: 0, z: 0}
    stripe:
      length: 28
      arr:
      - 0.9913565
      - 1.0006113
      - 0.99987495
      - 0.9955825
      - 0.99413806
      - 0.9954083
      - 0.9959454
      - 0.9950727
      - 0.9921139
      - 0.9868192
      - 0.9806152
      - 0.97236717
      - 0.9605193
      - 0.9435156
      - 0.91943485
      - 0.8891512
      - 0.8557048
      - 0.8221398
      - 0.79117584
      - 0.76136285
      - 0.7317845
      - 0.7022559
      - 0.6725917
      - 0.6426923
      - 0.6126769
      - 0.5825993
      - 0.5525091
      - 0.526348
      offset: 3.98
      size: 5.0625
    name: Dst
    argType: 14
  - vec: {x: 0, y: 0, z: 0, w: 0}
    rect:
      offset:
        x: 0
        z: 0
      size:
        x: 0
        z: 0
    matrix:
      rect:
        offset:
          x: 0
          z: 0
        size:
          x: 0
          z: 0
      count: 0
      arr: []
      worldPos: {x: 0, y: 0, z: 0}
      worldSize: {x: 0, y: 0, z: 0}
    stripe:
      length: 38
      arr:
      - 0.5226522
      - 0.4933606
      - 0.4641981
      - 0.4349117
      - 0.4052487
      - 0.37495658
      - 0.34414014
      - 0.31296396
      - 0.2813173
      - 0.24908915
      - 0.21616882
      - 0.18054788
      - 0.14089297
      - 0.10101319
      - 0.064810485
      - 0.036186203
      - 0.017900188
      - 0.0074484684
      - 0.003241085
      - 0.0039318986
      - 0.008174701
      - 0.014121743
      - 0.018837344
      - 0.026006302
      - 0.040378846
      - 0.06670504
      - 0.11049989
      - 0.18628919
      - 0.28333476
      - 0.38219258
      - 0.46342012
      - 0.50759834
      - 0.5083869
      - 0.47918227
      - 0.4324856
      - 0.38079858
      - 0.33662283
      - 0.32400158
      offset: 9.0425
      size: 7.125
    name: Dst
    argType: 14
  result:
    vec: {x: 0, y: 0, z: 0, w: 0}
    rect:
      offset:
        x: 0
        z: 0
      size:
        x: 0
        z: 0
    matrix:
      rect:
        offset:
          x: 0
          z: 0
        size:
          x: 0
          z: 0
      count: 0
      arr: []
      worldPos: {x: 0, y: 0, z: 0}
      worldSize: {x: 0, y: 0, z: 0}
    stripe:
      length: 0
      arr: []
      offset: 0
      size: 0
    name: 
    argType: 0
  benchmarkIterations: 1000
  benchmarkReferences: 0
  benchmarkCurrent: 0
  regressionObj:
    vec: {x: 0, y: 0, z: 0, w: 0}
    rect:
      offset:
        x: 0
        z: 0
      size:
        x: 0
        z: 0
    matrix:
      rect:
        offset:
          x: 0
          z: 0
        size:
          x: 0
          z: 0
      count: 0
      arr: []
      worldPos: {x: 0, y: 0, z: 0}
      worldSize: {x: 0, y: 0, z: 0}
    stripe:
      length: 0
      arr: []
      offset: 0
      size: 0
    name: 
    argType: 0
  regressionArguments:
  - vec: {x: 0, y: 0, z: 0, w: 0}
    rect:
      offset:
        x: 0
        z: 0
      size:
        x: 0
        z: 0
    matrix:
      rect:
        offset:
          x: 0
          z: 0
        size:
          x: 0
          z: 0
      count: 0
      arr: []
      worldPos: {x: 0, y: 0, z: 0}
      worldSize: {x: 0, y: 0, z: 0}
    stripe:
      length: 6
      arr:
      - 0.7330782
      - 0.39916515
      - 0.34907827
      - 0.35241738
      - 0.6061913
      - 0.703026
      offset: 10
      size: 5
    name: Src
    argType: 14
  - vec: {x: 0, y: 0, z: 0, w: 0}
    rect:
      offset:
        x: 0
        z: 0
      size:
        x: 0
        z: 0
    matrix:
      rect:
        offset:
          x: 0
          z: 0
        size:
          x: 0
          z: 0
      count: 0
      arr: []
      worldPos: {x: 0, y: 0, z: 0}
      worldSize: {x: 0, y: 0, z: 0}
    stripe:
      length: 15
      arr:
      - 0.74232763
      - 0.63726497
      - 0.47778752
      - 0.37829727
      - 0.3524776
      - 0.35032037
      - 0.33708677
      - 0.3320776
      - 0.37424073
      - 0.48261747
      - 0.5926074
      - 0.6533037
      - 0.688023
      - 0.70779014
      - 0.70779014
      offset: 9.93
      size: 5.6
    name: Dst
    argType: 14
  regressionRes:
    vec: {x: 0, y: 0, z: 0, w: 0}
    rect:
      offset:
        x: 0
        z: 0
      size:
        x: 0
        z: 0
    matrix:
      rect:
        offset:
          x: 0
          z: 0
        size:
          x: 0
          z: 0
      count: 0
      arr: []
      worldPos: {x: 0, y: 0, z: 0}
      worldSize: {x: 0, y: 0, z: 0}
    stripe:
      length: 0
      arr: []
      offset: 0
      size: 0
    name: 
    argType: 0
