%YAML 1.1
%TAG !u! tag:unity3d.com,2011:
--- !u!114 &11400000
MonoBehaviour:
  m_ObjectHideFlags: 0
  m_CorrespondingSourceObject: {fileID: 0}
  m_PrefabInstance: {fileID: 0}
  m_PrefabAsset: {fileID: 0}
  m_GameObject: {fileID: 0}
  m_Enabled: 1
  m_EditorHideFlags: 0
  m_Script: {fileID: 11500000, guid: 525ea610e05109241bd0dfc7332dbbbf, type: 3}
  m_Name: Upsample_negative
  m_EditorClassIdentifier: 
  className: Den.Tools.Matrices.Stripe
  fnName: UpsampleCubic
  obj:
    vec: {x: 0, y: 0, z: 0, w: 0}
    rect:
      offset:
        x: 0
        z: 0
      size:
        x: 0
        z: 0
    matrix:
      rect:
        offset:
          x: 0
          z: 0
        size:
          x: 0
          z: 0
      count: 0
      arr: []
      worldPos: {x: 0, y: 0, z: 0}
      worldSize: {x: 0, y: 0, z: 0}
    stripe:
      length: 0
      arr: []
      offset: 0
      size: 0
    name: 
    argType: 0
  arguments:
  - vec: {x: 0, y: 0, z: 0, w: 0}
    rect:
      offset:
        x: 0
        z: 0
      size:
        x: 0
        z: 0
    matrix:
      rect:
        offset:
          x: 0
          z: 0
        size:
          x: 0
          z: 0
      count: 0
      arr: []
      worldPos: {x: 0, y: 0, z: 0}
      worldSize: {x: 0, y: 0, z: 0}
    stripe:
      length: 10
      arr:
      - 0.7330782
      - 0.39916515
      - 0.29437307
      - 0.35241738
      - 0.6061913
      - 0.703026
      - 0.72973907
      - 0.5727999
      - 0.48932168
      - 0.21217382
      offset: -9
      size: 10
    name: Src
    argType: 14
  - vec: {x: 0, y: 0, z: 0, w: 0}
    rect:
      offset:
        x: 0
        z: 0
      size:
        x: 0
        z: 0
    matrix:
      rect:
        offset:
          x: 0
          z: 0
        size:
          x: 0
          z: 0
      count: 0
      arr: []
      worldPos: {x: 0, y: 0, z: 0}
      worldSize: {x: 0, y: 0, z: 0}
    stripe:
      length: 50
      arr:
      - 0.7330782
      - 0.66859233
      - 0.60063595
      - 0.5334684
      - 0.47134873
      - 0.41853604
      - 0.378285
      - 0.34777734
      - 0.3253188
      - 0.30967718
      - 0.29962027
      - 0.29392326
      - 0.2924487
      - 0.29603732
      - 0.30530053
      - 0.3208498
      - 0.34329668
      - 0.37529585
      - 0.42078164
      - 0.47384176
      - 0.5279203
      - 0.57646185
      - 0.6131464
      - 0.63989425
      - 0.6603912
      - 0.6762511
      - 0.689088
      - 0.70051557
      - 0.7121283
      - 0.7235349
      - 0.7326541
      - 0.73737544
      - 0.7355884
      - 0.724956
      - 0.70246375
      - 0.6714747
      - 0.6367681
      - 0.60312366
      - 0.5753209
      - 0.55713207
      - 0.5460151
      - 0.5370086
      - 0.5251468
      - 0.50546384
      - 0.47336432
      - 0.42965984
      - 0.3780886
      - 0.32225025
      - 0.26574543
      - 0.21217382
      offset: -9
      size: 10
    name: Dst
    argType: 14
  result:
    vec: {x: 0, y: 0, z: 0, w: 0}
    rect:
      offset:
        x: 0
        z: 0
      size:
        x: 0
        z: 0
    matrix:
      rect:
        offset:
          x: 0
          z: 0
        size:
          x: 0
          z: 0
      count: 0
      arr: []
      worldPos: {x: 0, y: 0, z: 0}
      worldSize: {x: 0, y: 0, z: 0}
    stripe:
      length: 0
      arr: []
      offset: 0
      size: 0
    name: 
    argType: 0
  benchmarkIterations: 1000
  benchmarkReferences: 0
  benchmarkCurrent: 0
  regressionObj:
    vec: {x: 0, y: 0, z: 0, w: 0}
    rect:
      offset:
        x: 0
        z: 0
      size:
        x: 0
        z: 0
    matrix:
      rect:
        offset:
          x: 0
          z: 0
        size:
          x: 0
          z: 0
      count: 0
      arr: []
      worldPos: {x: 0, y: 0, z: 0}
      worldSize: {x: 0, y: 0, z: 0}
    stripe:
      length: 0
      arr: []
      offset: 0
      size: 0
    name: 
    argType: 0
  regressionArguments:
  - vec: {x: 0, y: 0, z: 0, w: 0}
    rect:
      offset:
        x: 0
        z: 0
      size:
        x: 0
        z: 0
    matrix:
      rect:
        offset:
          x: 0
          z: 0
        size:
          x: 0
          z: 0
      count: 0
      arr: []
      worldPos: {x: 0, y: 0, z: 0}
      worldSize: {x: 0, y: 0, z: 0}
    stripe:
      length: 10
      arr:
      - 0.7330782
      - 0.39916515
      - 0.29437307
      - 0.35241738
      - 0.6061913
      - 0.703026
      - 0.72973907
      - 0.5727999
      - 0.48932168
      - 0.21217382
      offset: -9
      size: 10
    name: Src
    argType: 14
  - vec: {x: 0, y: 0, z: 0, w: 0}
    rect:
      offset:
        x: 0
        z: 0
      size:
        x: 0
        z: 0
    matrix:
      rect:
        offset:
          x: 0
          z: 0
        size:
          x: 0
          z: 0
      count: 0
      arr: []
      worldPos: {x: 0, y: 0, z: 0}
      worldSize: {x: 0, y: 0, z: 0}
    stripe:
      length: 50
      arr:
      - 0.7330782
      - 0.66859233
      - 0.60063595
      - 0.5334684
      - 0.47134873
      - 0.41853604
      - 0.378285
      - 0.34777734
      - 0.3253188
      - 0.30967718
      - 0.29962027
      - 0.29392326
      - 0.2924487
      - 0.29603732
      - 0.30530053
      - 0.3208498
      - 0.34329668
      - 0.37529585
      - 0.42078164
      - 0.47384176
      - 0.5279203
      - 0.57646185
      - 0.6131464
      - 0.63989425
      - 0.6603912
      - 0.6762511
      - 0.689088
      - 0.70051557
      - 0.7121283
      - 0.7235349
      - 0.7326541
      - 0.73737544
      - 0.7355884
      - 0.724956
      - 0.70246375
      - 0.6714747
      - 0.6367681
      - 0.60312366
      - 0.5753209
      - 0.55713207
      - 0.5460151
      - 0.5370086
      - 0.5251468
      - 0.50546384
      - 0.47336432
      - 0.42965984
      - 0.3780886
      - 0.32225025
      - 0.26574543
      - 0.21217382
      offset: -9
      size: 10
    name: Dst
    argType: 14
  regressionRes:
    vec: {x: 0, y: 0, z: 0, w: 0}
    rect:
      offset:
        x: 0
        z: 0
      size:
        x: 0
        z: 0
    matrix:
      rect:
        offset:
          x: 0
          z: 0
        size:
          x: 0
          z: 0
      count: 0
      arr: []
      worldPos: {x: 0, y: 0, z: 0}
      worldSize: {x: 0, y: 0, z: 0}
    stripe:
      length: 0
      arr: []
      offset: 0
      size: 0
    name: 
    argType: 0
